# 3ds Max Wavefront OBJ Exporter v0.97b - (c)2007 guruware
# File Created: 23.09.2017 14:27:37

mtllib Tree01.mtl

#
# object Tree01
#

v  10.3128 16.7253 -0.0000
v  9.5278 16.7253 -3.9466
v  8.9113 26.7560 -3.6912
v  9.6455 26.7560 -0.0000
v  7.2923 16.7253 -7.2923
v  6.8204 26.7560 -6.8204
v  3.9466 16.7253 -9.5278
v  3.6912 26.7560 -8.9113
v  -0.0000 16.7253 -10.3128
v  -0.0000 26.7560 -9.6455
v  -3.9466 16.7253 -9.5278
v  -3.6912 26.7560 -8.9113
v  -7.2923 16.7253 -7.2923
v  -6.8204 26.7560 -6.8204
v  -9.5278 16.7253 -3.9466
v  -8.9113 26.7560 -3.6912
v  -10.3128 16.7253 -0.0000
v  -9.6455 26.7560 -0.0000
v  -9.5278 16.7253 3.9466
v  -8.9113 26.7560 3.6912
v  -7.2923 16.7253 7.2923
v  -6.8204 26.7560 6.8204
v  -3.9466 16.7253 9.5278
v  -3.6912 26.7560 8.9113
v  0.0000 16.7253 10.3128
v  0.0000 26.7560 9.6455
v  3.9466 16.7253 9.5278
v  3.6912 26.7560 8.9113
v  7.2923 16.7253 7.2923
v  6.8204 26.7560 6.8204
v  9.5278 16.7253 3.9465
v  8.9113 26.7560 3.6912
v  12.6142 6.1063 -0.0000
v  14.1134 2.8099 -0.0000
v  13.0391 2.8099 -5.4010
v  11.6540 6.1063 -4.8273
v  9.9797 2.8099 -9.9797
v  8.9196 6.1063 -8.9196
v  5.4010 2.8099 -13.0391
v  4.8273 6.1063 -11.6540
v  -0.0000 2.8099 -14.1134
v  -0.0000 6.1063 -12.6142
v  -5.4010 2.8099 -13.0391
v  -4.8273 6.1063 -11.6540
v  -9.9797 2.8099 -9.9797
v  -8.9196 6.1063 -8.9196
v  -13.0391 2.8099 -5.4010
v  -11.6540 6.1063 -4.8273
v  -14.1134 2.8099 -0.0000
v  -12.6142 6.1063 -0.0000
v  -13.0391 2.8099 5.4010
v  -11.6540 6.1063 4.8273
v  -9.9797 2.8099 9.9797
v  -8.9196 6.1063 8.9196
v  -5.4010 2.8099 13.0391
v  -4.8273 6.1063 11.6540
v  0.0000 2.8099 14.1134
v  0.0000 6.1063 12.6142
v  5.4010 2.8099 13.0391
v  4.8273 6.1063 11.6540
v  9.9797 2.8099 9.9797
v  8.9196 6.1063 8.9196
v  13.0391 2.8099 5.4010
v  11.6540 6.1063 4.8272
v  21.4899 -0.2020 2.1596
v  14.7749 0.0701 -2.9389
v  16.5643 -0.2020 -7.9672
v  14.0843 -0.2020 -11.6789
v  8.3693 0.0701 -12.5256
v  7.0157 -0.2020 -21.4788
v  2.6375 -0.2020 -22.3497
v  -2.9389 0.0701 -14.7749
v  -7.4836 -0.2020 -14.8757
v  -11.1953 -0.2020 -12.3957
v  -12.5256 0.0701 -8.3693
v  -21.0044 -0.2020 -6.3675
v  -21.8752 -0.2020 -1.9893
v  -14.7749 0.0701 2.9389
v  -16.8538 -0.2020 8.8610
v  -14.3738 -0.2020 12.5727
v  -8.3693 0.0701 12.5256
v  -6.2665 -0.2020 21.3309
v  -1.8883 -0.2020 22.2018
v  2.9389 0.0701 14.7749
v  10.1272 -0.2020 18.5165
v  13.8388 -0.2020 16.0364
v  12.5256 0.0701 8.3693
v  20.6190 -0.2020 6.5378
v  9.4808 37.8577 -0.0000
v  8.7591 37.8577 -3.6281
v  9.2337 46.0880 -3.8247
v  9.9944 46.0880 -0.0000
v  6.7039 37.8577 -6.7039
v  7.0671 46.0880 -7.0671
v  3.6281 37.8577 -8.7591
v  3.8247 46.0880 -9.2337
v  -0.0000 37.8577 -9.4808
v  -0.0000 46.0880 -9.9944
v  -3.6281 37.8577 -8.7591
v  -3.8247 46.0880 -9.2337
v  -6.7039 37.8577 -6.7039
v  -7.0671 46.0880 -7.0671
v  -8.7591 37.8577 -3.6281
v  -9.2337 46.0880 -3.8247
v  -9.4808 37.8577 -0.0000
v  -9.9944 46.0880 -0.0000
v  -8.7591 37.8577 3.6281
v  -9.2337 46.0880 3.8247
v  -6.7039 37.8577 6.7039
v  -7.0671 46.0880 7.0671
v  -3.6281 37.8577 8.7591
v  -3.8247 46.0880 9.2337
v  0.0000 37.8577 9.4808
v  0.0000 46.0880 9.9944
v  3.6281 37.8577 8.7591
v  3.8247 46.0880 9.2337
v  6.7039 37.8577 6.7039
v  7.0671 46.0880 7.0671
v  8.7591 37.8577 3.6281
v  9.2337 46.0880 3.8247
v  0.0000 82.8121 -0.0000
v  -0.0000 80.4365 -11.9432
v  -4.5705 80.4365 -11.0341
v  -8.4451 80.4365 -8.4451
v  -11.0341 80.4365 -4.5705
v  -11.9432 80.4365 -0.0000
v  -11.0341 80.4365 4.5705
v  -8.4451 80.4365 8.4451
v  -4.5705 80.4365 11.0341
v  0.0000 80.4365 11.9432
v  4.5705 80.4365 11.0341
v  8.4451 80.4365 8.4451
v  11.0341 80.4365 4.5705
v  11.9432 80.4365 -0.0000
v  11.0341 80.4365 -4.5705
v  8.4451 80.4365 -8.4451
v  4.5705 80.4365 -11.0341
v  -8.4451 73.6712 -20.3883
v  -0.0000 73.6712 -22.0681
v  -15.6045 73.6712 -15.6045
v  -20.3883 73.6712 -8.4451
v  -22.0681 73.6712 -0.0000
v  -20.3883 73.6712 8.4451
v  -15.6045 73.6712 15.6045
v  -8.4451 73.6712 20.3883
v  0.0000 73.6712 22.0681
v  8.4451 73.6712 20.3883
v  15.6045 73.6712 15.6045
v  20.3883 73.6712 8.4451
v  22.0681 73.6712 -0.0000
v  20.3883 73.6712 -8.4451
v  15.6045 73.6712 -15.6046
v  8.4451 73.6712 -20.3883
v  -11.0341 63.5463 -26.6386
v  -0.0000 63.5463 -28.8334
v  -20.3883 63.5463 -20.3883
v  -26.6386 63.5463 -11.0341
v  -28.8334 63.5463 -0.0000
v  -26.6386 63.5463 11.0341
v  -20.3883 63.5463 20.3883
v  -11.0341 63.5463 26.6386
v  0.0000 63.5463 28.8334
v  11.0341 63.5463 26.6386
v  20.3883 63.5463 20.3883
v  26.6386 63.5463 11.0341
v  28.8334 63.5463 -0.0000
v  26.6386 63.5463 -11.0341
v  20.3883 63.5463 -20.3883
v  11.0340 63.5463 -26.6386
v  -11.9432 51.6031 -28.8334
v  -0.0000 51.6031 -31.2091
v  -22.0681 51.6031 -22.0681
v  -28.8334 51.6031 -11.9432
v  -31.2091 51.6031 -0.0000
v  -28.8334 51.6031 11.9432
v  -22.0682 51.6031 22.0681
v  -11.9432 51.6031 28.8334
v  0.0000 51.6031 31.2091
v  11.9432 51.6031 28.8334
v  22.0682 51.6031 22.0681
v  28.8334 51.6031 11.9432
v  31.2091 51.6031 -0.0000
v  28.8334 51.6031 -11.9432
v  22.0681 51.6031 -22.0682
v  11.9432 51.6031 -28.8334
v  -11.4491 45.1119 -27.6405
v  -0.0000 45.1119 -29.9179
v  -21.1552 45.1119 -21.1552
v  -27.6405 45.1119 -11.4491
v  -29.9179 45.1119 -0.0000
v  -27.6405 45.1119 11.4491
v  -21.1552 45.1119 21.1551
v  -11.4491 45.1119 27.6405
v  0.0000 45.1119 29.9179
v  11.4491 45.1119 27.6405
v  21.1552 45.1119 21.1551
v  27.6405 45.1119 11.4491
v  29.9179 45.1119 -0.0000
v  27.6405 45.1119 -11.4491
v  21.1551 45.1119 -21.1552
v  11.4491 45.1119 -27.6406
v  -16.6682 41.4550 16.6682
v  -21.7780 41.4550 9.0208
v  -9.0208 41.4550 21.7780
v  0.0000 41.4550 23.5724
v  9.0208 41.4550 21.7780
v  16.6682 41.4550 16.6682
v  21.7780 41.4550 9.0207
v  23.5724 41.4550 -0.0000
v  21.7780 41.4550 -9.0208
v  16.6682 41.4550 -16.6682
v  9.0207 41.4550 -21.7780
v  -0.0000 41.4550 -23.5724
v  -9.0208 41.4550 -21.7780
v  -16.6682 41.4550 -16.6682
v  -21.7780 41.4550 -9.0208
v  -23.5724 41.4550 -0.0000
# 217 vertices

vn 0.9900 0.1407 -0.0000
vn 0.9147 0.1407 -0.3789
vn 0.9231 0.0408 -0.3824
vn 0.9992 0.0408 -0.0000
vn 0.7001 0.1407 -0.7001
vn 0.7065 0.0408 -0.7065
vn 0.3789 0.1407 -0.9147
vn 0.3824 0.0408 -0.9231
vn 0.0000 0.1407 -0.9900
vn 0.0000 0.0408 -0.9992
vn -0.3789 0.1407 -0.9147
vn -0.3824 0.0408 -0.9231
vn -0.7001 0.1407 -0.7001
vn -0.7065 0.0408 -0.7065
vn -0.9147 0.1407 -0.3789
vn -0.9231 0.0408 -0.3824
vn -0.9900 0.1407 -0.0000
vn -0.9992 0.0408 -0.0000
vn -0.9147 0.1407 0.3789
vn -0.9231 0.0408 0.3824
vn -0.7001 0.1407 0.7001
vn -0.7065 0.0408 0.7065
vn -0.3789 0.1407 0.9147
vn -0.3824 0.0408 0.9231
vn 0.0000 0.1407 0.9900
vn -0.0000 0.0408 0.9992
vn 0.3789 0.1407 0.9147
vn 0.3824 0.0408 0.9231
vn 0.7001 0.1407 0.7001
vn 0.7065 0.0408 0.7065
vn 0.9147 0.1407 0.3789
vn 0.9231 0.0408 0.3824
vn 0.9478 0.3187 -0.0000
vn 0.7535 0.6440 -0.1319
vn 0.7791 0.5846 -0.2263
vn 0.8757 0.3187 -0.3627
vn 0.5125 0.5713 -0.6411
vn 0.6702 0.3187 -0.6702
vn 0.4086 0.6631 -0.6272
vn 0.3627 0.3187 -0.8757
vn -0.1395 0.6509 -0.7462
vn -0.0000 0.3187 -0.9478
vn -0.2840 0.4999 -0.8182
vn -0.3627 0.3187 -0.8757
vn -0.6434 0.5075 -0.5731
vn -0.6702 0.3187 -0.6702
vn -0.6400 0.6494 -0.4107
vn -0.8757 0.3187 -0.3627
vn -0.7465 0.6517 0.1341
vn -0.9478 0.3187 -0.0000
vn -0.7758 0.5952 0.2096
vn -0.8757 0.3187 0.3627
vn -0.4870 0.6037 0.6312
vn -0.6702 0.3187 0.6702
vn -0.4125 0.6506 0.6377
vn -0.3627 0.3187 0.8757
vn 0.1360 0.6573 0.7412
vn 0.0000 0.3187 0.9478
vn 0.1733 0.6343 0.7534
vn 0.3627 0.3187 0.8757
vn 0.6221 0.6453 0.4433
vn 0.6702 0.3187 0.6702
vn 0.6425 0.6486 0.4081
vn 0.8757 0.3187 0.3627
vn 0.3957 0.9153 -0.0750
vn 0.4486 0.7019 -0.5533
vn 0.8457 0.5337 -0.0024
vn 0.5793 0.8020 -0.1456
vn 0.3883 0.7935 -0.4685
vn 0.1433 0.6272 -0.7656
vn 0.6354 0.5965 -0.4903
vn 0.2115 0.9326 -0.2924
vn -0.0679 0.9298 -0.3618
vn -0.6922 0.7008 0.1728
vn -0.4288 0.8753 0.2234
vn -0.2782 0.6329 -0.7225
vn -0.5720 0.6412 -0.5116
vn -0.7802 0.5516 -0.2951
vn -0.5212 0.5803 -0.6258
vn -0.3224 0.9217 -0.2156
vn -0.3782 0.9224 0.0790
vn 0.1791 0.6992 0.6921
vn 0.1765 0.9843 0.0077
vn -0.5290 0.8362 0.1446
vn -0.3171 0.8406 0.4391
vn -0.0247 0.6727 0.7395
vn -0.6256 0.5799 0.5219
vn -0.2084 0.9261 0.3146
vn 0.0810 0.9277 0.3644
vn 0.6920 0.6965 -0.1899
vn -0.1339 0.9746 -0.1797
vn 0.0952 0.9047 0.4153
vn 0.3515 0.9081 0.2276
vn 0.7008 0.7070 -0.0949
vn 0.5180 0.5820 0.6268
vn 0.3304 0.9166 0.2251
vn 0.9997 -0.0239 -0.0000
vn 0.9236 -0.0239 -0.3826
vn 0.9221 -0.0623 -0.3819
vn 0.9981 -0.0623 -0.0000
vn 0.7069 -0.0239 -0.7069
vn 0.7057 -0.0623 -0.7057
vn 0.3826 -0.0239 -0.9236
vn 0.3819 -0.0623 -0.9221
vn -0.0000 -0.0239 -0.9997
vn 0.0000 -0.0623 -0.9981
vn -0.3826 -0.0239 -0.9236
vn -0.3819 -0.0623 -0.9221
vn -0.7069 -0.0239 -0.7069
vn -0.7057 -0.0623 -0.7057
vn -0.9236 -0.0239 -0.3826
vn -0.9221 -0.0623 -0.3819
vn -0.9997 -0.0239 -0.0000
vn -0.9981 -0.0623 -0.0000
vn -0.9236 -0.0239 0.3826
vn -0.9221 -0.0623 0.3819
vn -0.7069 -0.0239 0.7069
vn -0.7057 -0.0623 0.7057
vn -0.3826 -0.0239 0.9236
vn -0.3819 -0.0623 0.9221
vn 0.0000 -0.0239 0.9997
vn -0.0000 -0.0623 0.9981
vn 0.3826 -0.0239 0.9236
vn 0.3819 -0.0623 0.9221
vn 0.7069 -0.0239 0.7069
vn 0.7057 -0.0623 0.7057
vn 0.9236 -0.0239 0.3826
vn 0.9221 -0.0623 0.3819
vn -0.0000 1.0000 0.0000
vn -0.0000 0.9152 -0.4031
vn -0.1543 0.9152 -0.3724
vn -0.2850 0.9152 -0.2850
vn -0.3724 0.9152 -0.1543
vn -0.4031 0.9152 -0.0000
vn -0.3724 0.9152 0.1543
vn -0.2850 0.9152 0.2850
vn -0.1543 0.9152 0.3724
vn 0.0000 0.9152 0.4031
vn 0.1543 0.9152 0.3724
vn 0.2850 0.9152 0.2850
vn 0.3724 0.9152 0.1543
vn 0.4031 0.9152 -0.0000
vn 0.3724 0.9152 -0.1543
vn 0.2850 0.9152 -0.2850
vn 0.1543 0.9152 -0.3724
vn -0.2751 0.6952 -0.6641
vn -0.0000 0.6952 -0.7189
vn -0.5083 0.6952 -0.5083
vn -0.6641 0.6952 -0.2751
vn -0.7189 0.6952 -0.0000
vn -0.6641 0.6952 0.2751
vn -0.5083 0.6952 0.5083
vn -0.2751 0.6952 0.6641
vn 0.0000 0.6952 0.7189
vn 0.2751 0.6952 0.6641
vn 0.5083 0.6952 0.5083
vn 0.6641 0.6952 0.2751
vn 0.7189 0.6952 -0.0000
vn 0.6641 0.6952 -0.2751
vn 0.5083 0.6952 -0.5083
vn 0.2751 0.6952 -0.6641
vn -0.3549 0.3744 -0.8567
vn -0.0000 0.3744 -0.9273
vn -0.6557 0.3744 -0.6557
vn -0.8567 0.3744 -0.3549
vn -0.9273 0.3744 -0.0000
vn -0.8567 0.3744 0.3549
vn -0.6557 0.3744 0.6557
vn -0.3549 0.3744 0.8567
vn 0.0000 0.3744 0.9273
vn 0.3549 0.3744 0.8567
vn 0.6557 0.3744 0.6557
vn 0.8567 0.3744 0.3549
vn 0.9273 0.3744 -0.0000
vn 0.8567 0.3744 -0.3549
vn 0.6557 0.3744 -0.6557
vn 0.3549 0.3744 -0.8567
vn -0.3827 0.0000 -0.9239
vn -0.0000 0.0000 -1.0000
vn -0.7071 -0.0000 -0.7071
vn -0.9239 0.0000 -0.3827
vn -1.0000 -0.0000 -0.0000
vn -0.9239 0.0000 0.3827
vn -0.7071 -0.0000 0.7071
vn -0.3827 0.0000 0.9239
vn 0.0000 -0.0000 1.0000
vn 0.3827 -0.0000 0.9239
vn 0.7071 -0.0000 0.7071
vn 0.9239 0.0000 0.3827
vn 1.0000 -0.0000 -0.0000
vn 0.9239 0.0000 -0.3827
vn 0.7071 0.0000 -0.7071
vn 0.3827 0.0000 -0.9239
vn -0.3171 -0.5596 -0.7657
vn -0.0000 -0.5596 -0.8287
vn -0.5860 -0.5596 -0.5860
vn -0.7657 -0.5596 -0.3171
vn -0.8287 -0.5596 -0.0000
vn -0.7657 -0.5596 0.3171
vn -0.5860 -0.5596 0.5860
vn -0.3171 -0.5596 0.7657
vn 0.0000 -0.5596 0.8287
vn 0.3171 -0.5596 0.7657
vn 0.5860 -0.5596 0.5860
vn 0.7657 -0.5596 0.3171
vn 0.8287 -0.5596 -0.0000
vn 0.7657 -0.5596 -0.3171
vn 0.5860 -0.5596 -0.5860
vn 0.3171 -0.5596 -0.7657
vn 0.2984 -0.9464 -0.1236
vn 0.2283 -0.9464 -0.2283
vn -0.1042 -0.9891 0.1042
vn -0.1361 -0.9891 0.0564
vn 0.1236 -0.9464 -0.2984
vn -0.0564 -0.9891 0.1361
vn -0.0000 -0.9464 -0.3229
vn 0.0000 -0.9891 0.1474
vn -0.1236 -0.9464 -0.2984
vn 0.0564 -0.9891 0.1361
vn -0.2283 -0.9464 -0.2283
vn 0.1042 -0.9891 0.1042
vn -0.2984 -0.9464 -0.1236
vn 0.1361 -0.9891 0.0564
vn -0.3229 -0.9464 0.0000
vn 0.1474 -0.9891 -0.0000
vn -0.2984 -0.9464 0.1236
vn 0.1361 -0.9891 -0.0564
vn -0.2283 -0.9464 0.2283
vn 0.1042 -0.9891 -0.1042
vn -0.1236 -0.9464 0.2984
vn 0.0564 -0.9891 -0.1361
vn -0.0000 -0.9464 0.3229
vn -0.0000 -0.9891 -0.1474
vn 0.1236 -0.9464 0.2984
vn -0.0564 -0.9891 -0.1361
vn 0.2283 -0.9464 0.2283
vn -0.1042 -0.9891 -0.1042
vn 0.2984 -0.9464 0.1236
vn -0.1361 -0.9891 -0.0564
vn 0.3229 -0.9464 0.0000
vn -0.1474 -0.9891 -0.0000
# 241 vertex normals

vt 0.4926 0.7771 0.0000
vt 0.5156 0.7812 0.0000
vt 0.5046 0.8350 0.0000
vt 0.4836 0.8313 0.0000
vt 0.5380 0.7861 0.0000
vt 0.5251 0.8393 0.0000
vt 0.5596 0.7920 0.0000
vt 0.5451 0.8441 0.0000
vt 0.5803 0.7994 0.0000
vt 0.5649 0.8490 0.0000
vt 0.2142 0.7957 0.0000
vt 0.2351 0.7888 0.0000
vt 0.2485 0.8411 0.0000
vt 0.2286 0.8456 0.0000
vt 0.2568 0.7833 0.0000
vt 0.2686 0.8367 0.0000
vt 0.2793 0.7788 0.0000
vt 0.2892 0.8328 0.0000
vt 0.3024 0.7752 0.0000
vt 0.3103 0.8296 0.0000
vt 0.3259 0.7725 0.0000
vt 0.3317 0.8270 0.0000
vt 0.3497 0.7706 0.0000
vt 0.3533 0.8252 0.0000
vt 0.3736 0.7696 0.0000
vt 0.3751 0.8242 0.0000
vt 0.3976 0.7694 0.0000
vt 0.3970 0.8240 0.0000
vt 0.4215 0.7700 0.0000
vt 0.4189 0.8247 0.0000
vt 0.4454 0.7716 0.0000
vt 0.4407 0.8261 0.0000
vt 0.4691 0.7739 0.0000
vt 0.4623 0.8283 0.0000
vt 0.5037 0.7190 0.0000
vt 0.5066 0.6995 0.0000
vt 0.5346 0.7045 0.0000
vt 0.5300 0.7237 0.0000
vt 0.5615 0.7108 0.0000
vt 0.5561 0.7297 0.0000
vt 0.5893 0.7194 0.0000
vt 0.5818 0.7376 0.0000
vt 0.6160 0.7316 0.0000
vt 0.6063 0.7483 0.0000
vt 0.1893 0.7441 0.0000
vt 0.1798 0.7272 0.0000
vt 0.2071 0.7155 0.0000
vt 0.2140 0.7339 0.0000
vt 0.2344 0.7075 0.0000
vt 0.2398 0.7265 0.0000
vt 0.2625 0.7017 0.0000
vt 0.2661 0.7210 0.0000
vt 0.2892 0.6974 0.0000
vt 0.2925 0.7169 0.0000
vt 0.3172 0.6942 0.0000
vt 0.3189 0.7138 0.0000
vt 0.3436 0.6921 0.0000
vt 0.3453 0.7117 0.0000
vt 0.3716 0.6908 0.0000
vt 0.3717 0.7105 0.0000
vt 0.3979 0.6906 0.0000
vt 0.3982 0.7103 0.0000
vt 0.4260 0.6914 0.0000
vt 0.4246 0.7110 0.0000
vt 0.4522 0.6931 0.0000
vt 0.4510 0.7127 0.0000
vt 0.4802 0.6959 0.0000
vt 0.4774 0.7154 0.0000
vt 0.1165 0.4426 0.0000
vt 0.1131 0.3977 0.0000
vt 0.1379 0.4364 0.0000
vt 0.0108 0.6039 0.0000
vt 0.0325 0.5844 0.0000
vt 0.0309 0.6133 0.0000
vt 0.0568 0.5849 0.0000
vt 0.0610 0.6139 0.0000
vt 0.0812 0.6048 0.0000
vt 0.0118 0.6762 0.0000
vt 0.0347 0.6324 0.0000
vt 0.0332 0.6821 0.0000
vt 0.0590 0.6330 0.0000
vt 0.0632 0.6828 0.0000
vt 0.0848 0.6774 0.0000
vt 0.8968 0.8189 0.0000
vt 0.9193 0.8085 0.0000
vt 0.9157 0.8305 0.0000
vt 0.9437 0.8082 0.0000
vt 0.9457 0.8301 0.0000
vt 0.9645 0.8183 0.0000
vt 0.8212 0.8341 0.0000
vt 0.8458 0.7934 0.0000
vt 0.8426 0.8400 0.0000
vt 0.8701 0.7933 0.0000
vt 0.8726 0.8399 0.0000
vt 0.8940 0.8340 0.0000
vt 0.7761 0.3809 0.0000
vt 0.7759 0.4152 0.0000
vt 0.7557 0.3897 0.0000
vt 0.7589 0.4326 0.0000
vt 0.7347 0.4112 0.0000
vt 0.7261 0.4316 0.0000
vt 0.8968 0.7821 0.0000
vt 0.9221 0.7397 0.0000
vt 0.9182 0.7879 0.0000
vt 0.9464 0.7395 0.0000
vt 0.9483 0.7877 0.0000
vt 0.9697 0.7819 0.0000
vt 0.8936 0.2050 0.0000
vt 0.9191 0.1689 0.0000
vt 0.9149 0.2114 0.0000
vt 0.9435 0.1686 0.0000
vt 0.9449 0.2110 0.0000
vt 0.9661 0.2045 0.0000
vt 0.0652 0.4362 0.0000
vt 0.0887 0.3976 0.0000
vt 0.0865 0.4424 0.0000
vt 0.5235 0.6860 0.0000
vt 0.5802 0.6995 0.0000
vt 0.1870 0.7064 0.0000
vt 0.2451 0.6887 0.0000
vt 0.3013 0.6796 0.0000
vt 0.3569 0.6752 0.0000
vt 0.4124 0.6748 0.0000
vt 0.4678 0.6783 0.0000
vt 0.4759 0.8913 0.0000
vt 0.4956 0.8948 0.0000
vt 0.4886 0.9391 0.0000
vt 0.4697 0.9357 0.0000
vt 0.5152 0.8989 0.0000
vt 0.5079 0.9430 0.0000
vt 0.5348 0.9030 0.0000
vt 0.5279 0.9471 0.0000
vt 0.5545 0.9067 0.0000
vt 0.5486 0.9505 0.0000
vt 0.2378 0.9035 0.0000
vt 0.2576 0.9002 0.0000
vt 0.2636 0.9444 0.0000
vt 0.2429 0.9475 0.0000
vt 0.2773 0.8965 0.0000
vt 0.2837 0.9408 0.0000
vt 0.2970 0.8928 0.0000
vt 0.3031 0.9372 0.0000
vt 0.3168 0.8897 0.0000
vt 0.3221 0.9342 0.0000
vt 0.3366 0.8872 0.0000
vt 0.3407 0.9318 0.0000
vt 0.3565 0.8855 0.0000
vt 0.3592 0.9302 0.0000
vt 0.3765 0.8845 0.0000
vt 0.3776 0.9293 0.0000
vt 0.3964 0.8844 0.0000
vt 0.3960 0.9291 0.0000
vt 0.4163 0.8849 0.0000
vt 0.4143 0.9296 0.0000
vt 0.4362 0.8863 0.0000
vt 0.4327 0.9309 0.0000
vt 0.4561 0.8884 0.0000
vt 0.4511 0.9329 0.0000
vt 0.1982 0.4364 -2.6257
vt 0.1488 0.3928 -2.6257
vt 0.1702 0.3768 -2.6257
vt 0.2051 0.4333 -2.6257
vt 0.2001 0.3671 -2.6257
vt 0.2303 0.4268 -2.6257
vt 0.2351 0.3601 -2.6257
vt 0.2635 0.4211 -2.6257
vt 0.2735 0.3545 -2.6257
vt 0.3006 0.4164 -2.6257
vt 0.3139 0.3501 -2.6257
vt 0.3396 0.4128 -2.6257
vt 0.3555 0.3469 -2.6257
vt 0.3795 0.4104 -2.6257
vt 0.3978 0.3450 -2.6257
vt 0.4199 0.4092 -2.6257
vt 0.4402 0.3444 -2.6257
vt 0.4601 0.4093 -2.6257
vt 0.4826 0.3453 -2.6257
vt 0.5004 0.4108 -2.6257
vt 0.5248 0.3475 -2.6257
vt 0.5403 0.4134 -2.6257
vt 0.5664 0.3509 -2.6257
vt 0.5793 0.4173 -2.6257
vt 0.6068 0.3555 -2.6257
vt 0.6163 0.4222 -2.6257
vt 0.6451 0.3613 -2.6257
vt 0.6495 0.4281 -2.6257
vt 0.6801 0.3686 -2.6257
vt 0.6747 0.4347 -2.6257
vt 0.7099 0.3785 -2.6257
vt 0.6815 0.4379 -2.6257
vt 0.7312 0.3947 -2.6257
vt 0.1268 0.3248 -2.6257
vt 0.0902 0.3519 -2.6257
vt 0.1696 0.3087 -2.6257
vt 0.2143 0.2983 -2.6257
vt 0.2594 0.2910 -2.6257
vt 0.3046 0.2857 -2.6257
vt 0.3498 0.2820 -2.6257
vt 0.3950 0.2798 -2.6257
vt 0.4403 0.2791 -2.6257
vt 0.4857 0.2801 -2.6257
vt 0.5310 0.2826 -2.6257
vt 0.5762 0.2865 -2.6257
vt 0.6213 0.2921 -2.6257
vt 0.6663 0.2997 -2.6257
vt 0.7109 0.3104 -2.6257
vt 0.7536 0.3268 -2.6257
vt 0.7900 0.3540 -2.6257
vt 0.0915 0.2659 -2.6257
vt 0.0390 0.2909 -2.6257
vt 0.1442 0.2492 -2.6257
vt 0.1959 0.2372 -2.6257
vt 0.2462 0.2282 -2.6257
vt 0.2954 0.2216 -2.6257
vt 0.3441 0.2170 -2.6257
vt 0.3923 0.2144 -2.6257
vt 0.4405 0.2136 -2.6257
vt 0.4887 0.2147 -2.6257
vt 0.5370 0.2177 -2.6257
vt 0.5856 0.2225 -2.6257
vt 0.6349 0.2295 -2.6257
vt 0.6851 0.2387 -2.6257
vt 0.7366 0.2511 -2.6257
vt 0.7893 0.2681 -2.6257
vt 0.8417 0.2934 -2.6257
vt 0.0704 0.2007 -2.6257
vt 0.0089 0.2130 -2.6257
vt 0.1281 0.1879 -2.6257
vt 0.1829 0.1758 -2.6257
vt 0.2359 0.1657 -2.6257
vt 0.2876 0.1579 -2.6257
vt 0.3389 0.1525 -2.6257
vt 0.3899 0.1493 -2.6257
vt 0.4407 0.1484 -2.6257
vt 0.4916 0.1497 -2.6257
vt 0.5425 0.1532 -2.6257
vt 0.5937 0.1589 -2.6257
vt 0.6455 0.1670 -2.6257
vt 0.6984 0.1775 -2.6257
vt 0.7532 0.1899 -2.6257
vt 0.8108 0.2030 -2.6257
vt 0.8722 0.2157 -2.6257
vt 0.0681 0.1625 -2.6257
vt 0.0081 0.1595 -2.6257
vt 0.1249 0.1547 -2.6257
vt 0.1791 0.1435 -2.6257
vt 0.2320 0.1329 -2.6257
vt 0.2844 0.1243 -2.6257
vt 0.3365 0.1184 -2.6257
vt 0.3887 0.1148 -2.6257
vt 0.4408 0.1137 -2.6257
vt 0.4930 0.1151 -2.6257
vt 0.5451 0.1190 -2.6257
vt 0.5973 0.1254 -2.6257
vt 0.6495 0.1342 -2.6257
vt 0.7024 0.1451 -2.6257
vt 0.7566 0.1567 -2.6257
vt 0.8133 0.1648 -2.6257
vt 0.8733 0.1621 -2.6257
vt 0.2729 0.0128 2.6257
vt 0.3280 0.0061 2.6257
vt 0.3340 0.0810 -1.1592
vt 0.2809 0.0874 -1.1592
vt 0.3844 0.0021 2.6257
vt 0.3874 0.0772 -1.1592
vt 0.4412 0.0009 2.6257
vt 0.4410 0.0761 -1.1592
vt 0.4980 0.0025 2.6257
vt 0.4946 0.0776 -1.1592
vt 0.5544 0.0069 2.6257
vt 0.5480 0.0817 -1.1592
vt 0.6095 0.0138 2.6257
vt 0.6009 0.0885 -1.1592
vt 0.6622 0.0230 2.6257
vt 0.6533 0.0976 -1.1592
vt 0.7107 0.0331 2.6257
vt 0.7049 0.1085 -1.1592
vt 0.7529 0.0420 2.6257
vt 0.7562 0.1187 -1.1592
vt 0.7865 0.0464 2.6257
vt 0.8070 0.1228 -1.1592
vt 0.8100 0.0413 2.6257
vt 0.8549 0.1115 -1.1592
vt 0.0721 0.0390 2.6257
vt 0.0957 0.0442 2.6257
vt 0.0747 0.1205 -1.1592
vt 0.0269 0.1089 -1.1592
vt 0.1293 0.0400 2.6257
vt 0.1255 0.1167 -1.1592
vt 0.1715 0.0313 2.6257
vt 0.1768 0.1068 -1.1592
vt 0.2201 0.0215 2.6257
vt 0.2285 0.0963 -1.1592
# 293 texture coords

g Tree01
usemtl wire_141007058
s 1
f 1/1/1 2/2/2 3/3/3 4/4/4 
f 2/2/2 5/5/5 6/6/6 3/3/3 
f 5/5/5 7/7/7 8/8/8 6/6/6 
f 7/7/7 9/9/9 10/10/10 8/8/8 
f 9/11/9 11/12/11 12/13/12 10/14/10 
f 11/12/11 13/15/13 14/16/14 12/13/12 
f 13/15/13 15/17/15 16/18/16 14/16/14 
f 15/17/15 17/19/17 18/20/18 16/18/16 
f 17/19/17 19/21/19 20/22/20 18/20/18 
f 19/21/19 21/23/21 22/24/22 20/22/20 
f 21/23/21 23/25/23 24/26/24 22/24/22 
f 23/25/23 25/27/25 26/28/26 24/26/24 
f 25/27/25 27/29/27 28/30/28 26/28/26 
f 27/29/27 29/31/29 30/32/30 28/30/28 
f 29/31/29 31/33/31 32/34/32 30/32/30 
f 31/33/31 1/1/1 4/4/4 32/34/32 
f 33/35/33 34/36/34 35/37/35 36/38/36 
f 36/38/36 35/37/35 37/39/37 38/40/38 
f 38/40/38 37/39/37 39/41/39 40/42/40 
f 40/42/40 39/41/39 41/43/41 42/44/42 
f 42/45/42 41/46/41 43/47/43 44/48/44 
f 44/48/44 43/47/43 45/49/45 46/50/46 
f 46/50/46 45/49/45 47/51/47 48/52/48 
f 48/52/48 47/51/47 49/53/49 50/54/50 
f 50/54/50 49/53/49 51/55/51 52/56/52 
f 52/56/52 51/55/51 53/57/53 54/58/54 
f 54/58/54 53/57/53 55/59/55 56/60/56 
f 56/60/56 55/59/55 57/61/57 58/62/58 
f 58/62/58 57/61/57 59/63/59 60/64/60 
f 60/64/60 59/63/59 61/65/61 62/66/62 
f 62/66/62 61/65/61 63/67/63 64/68/64 
f 64/68/64 63/67/63 34/36/34 33/35/33 
f 1/1/1 33/35/33 36/38/36 2/2/2 
f 2/2/2 36/38/36 38/40/38 5/5/5 
f 5/5/5 38/40/38 40/42/40 7/7/7 
f 7/7/7 40/42/40 42/44/42 9/9/9 
f 9/11/9 42/45/42 44/48/44 11/12/11 
f 11/12/11 44/48/44 46/50/46 13/15/13 
f 13/15/13 46/50/46 48/52/48 15/17/15 
f 15/17/15 48/52/48 50/54/50 17/19/17 
f 17/19/17 50/54/50 52/56/52 19/21/19 
f 19/21/19 52/56/52 54/58/54 21/23/21 
f 21/23/21 54/58/54 56/60/56 23/25/23 
f 23/25/23 56/60/56 58/62/58 25/27/25 
f 25/27/25 58/62/58 60/64/60 27/29/27 
f 27/29/27 60/64/60 62/66/62 29/31/29 
f 29/31/29 62/66/62 64/68/64 31/33/31 
f 31/33/31 64/68/64 33/35/33 1/1/1 
f 34/69/34 65/70/65 66/71/66 
f 66/72/67 67/73/68 35/74/35 
f 68/75/69 37/76/37 35/74/35 67/73/68 
f 37/76/37 68/75/69 69/77/70 
f 69/78/71 70/79/72 39/80/39 
f 71/81/73 41/82/41 39/80/39 70/79/72 
f 41/82/41 71/81/73 72/83/74 
f 72/84/75 73/85/76 43/86/43 
f 74/87/77 45/88/45 43/86/43 73/85/76 
f 45/88/45 74/87/77 75/89/78 
f 75/90/79 76/91/80 47/92/47 
f 77/93/81 49/94/49 47/92/47 76/91/80 
f 49/94/49 77/93/81 78/95/82 
f 78/96/83 79/97/84 51/98/51 
f 80/99/85 53/100/53 51/98/51 79/97/84 
f 53/100/53 80/99/85 81/101/86 
f 81/102/87 82/103/88 55/104/55 
f 83/105/89 57/106/57 55/104/55 82/103/88 
f 57/106/57 83/105/89 84/107/90 
f 84/108/91 85/109/92 59/110/59 
f 86/111/93 61/112/61 59/110/59 85/109/92 
f 61/112/61 86/111/93 87/113/94 
f 87/114/95 88/115/96 63/116/63 
f 65/70/65 34/69/34 63/116/63 88/115/96 
f 66/117/67 35/37/35 34/36/34 66/117/66 
f 69/118/71 39/41/39 37/39/37 69/118/70 
f 72/119/75 43/47/43 41/46/41 72/119/74 
f 75/120/79 47/51/47 45/49/45 75/120/78 
f 78/121/83 51/55/51 49/53/49 78/121/82 
f 81/122/87 55/59/55 53/57/53 81/122/86 
f 84/123/91 59/63/59 57/61/57 84/123/90 
f 87/124/95 63/67/63 61/65/61 87/124/94 
f 89/125/97 90/126/98 91/127/99 92/128/100 
f 90/126/98 93/129/101 94/130/102 91/127/99 
f 93/129/101 95/131/103 96/132/104 94/130/102 
f 95/131/103 97/133/105 98/134/106 96/132/104 
f 97/135/105 99/136/107 100/137/108 98/138/106 
f 99/136/107 101/139/109 102/140/110 100/137/108 
f 101/139/109 103/141/111 104/142/112 102/140/110 
f 103/141/111 105/143/113 106/144/114 104/142/112 
f 105/143/113 107/145/115 108/146/116 106/144/114 
f 107/145/115 109/147/117 110/148/118 108/146/116 
f 109/147/117 111/149/119 112/150/120 110/148/118 
f 111/149/119 113/151/121 114/152/122 112/150/120 
f 113/151/121 115/153/123 116/154/124 114/152/122 
f 115/153/123 117/155/125 118/156/126 116/154/124 
f 117/155/125 119/157/127 120/158/128 118/156/126 
f 119/157/127 89/125/97 92/128/100 120/158/128 
f 3/3/3 90/126/98 89/125/97 4/4/4 
f 6/6/6 93/129/101 90/126/98 3/3/3 
f 8/8/8 95/131/103 93/129/101 6/6/6 
f 10/10/10 97/133/105 95/131/103 8/8/8 
f 12/13/12 99/136/107 97/135/105 10/14/10 
f 14/16/14 101/139/109 99/136/107 12/13/12 
f 16/18/16 103/141/111 101/139/109 14/16/14 
f 18/20/18 105/143/113 103/141/111 16/18/16 
f 20/22/20 107/145/115 105/143/113 18/20/18 
f 22/24/22 109/147/117 107/145/115 20/22/20 
f 24/26/24 111/149/119 109/147/117 22/24/22 
f 26/28/26 113/151/121 111/149/119 24/26/24 
f 28/30/28 115/153/123 113/151/121 26/28/26 
f 30/32/30 117/155/125 115/153/123 28/30/28 
f 32/34/32 119/157/127 117/155/125 30/32/30 
f 4/4/4 89/125/97 119/157/127 32/34/32 
s 2
f 121/159/129 122/160/130 123/161/131 
f 121/162/129 123/161/131 124/163/132 
f 121/164/129 124/163/132 125/165/133 
f 121/166/129 125/165/133 126/167/134 
f 121/168/129 126/167/134 127/169/135 
f 121/170/129 127/169/135 128/171/136 
f 121/172/129 128/171/136 129/173/137 
f 121/174/129 129/173/137 130/175/138 
f 121/176/129 130/175/138 131/177/139 
f 121/178/129 131/177/139 132/179/140 
f 121/180/129 132/179/140 133/181/141 
f 121/182/129 133/181/141 134/183/142 
f 121/184/129 134/183/142 135/185/143 
f 121/186/129 135/185/143 136/187/144 
f 121/188/129 136/187/144 137/189/145 
f 121/190/129 137/189/145 122/191/130 
f 138/192/146 123/161/131 122/160/130 139/193/147 
f 140/194/148 124/163/132 123/161/131 138/192/146 
f 141/195/149 125/165/133 124/163/132 140/194/148 
f 142/196/150 126/167/134 125/165/133 141/195/149 
f 143/197/151 127/169/135 126/167/134 142/196/150 
f 144/198/152 128/171/136 127/169/135 143/197/151 
f 145/199/153 129/173/137 128/171/136 144/198/152 
f 146/200/154 130/175/138 129/173/137 145/199/153 
f 147/201/155 131/177/139 130/175/138 146/200/154 
f 148/202/156 132/179/140 131/177/139 147/201/155 
f 149/203/157 133/181/141 132/179/140 148/202/156 
f 150/204/158 134/183/142 133/181/141 149/203/157 
f 151/205/159 135/185/143 134/183/142 150/204/158 
f 152/206/160 136/187/144 135/185/143 151/205/159 
f 153/207/161 137/189/145 136/187/144 152/206/160 
f 139/208/147 122/191/130 137/189/145 153/207/161 
f 154/209/162 138/192/146 139/193/147 155/210/163 
f 156/211/164 140/194/148 138/192/146 154/209/162 
f 157/212/165 141/195/149 140/194/148 156/211/164 
f 158/213/166 142/196/150 141/195/149 157/212/165 
f 159/214/167 143/197/151 142/196/150 158/213/166 
f 160/215/168 144/198/152 143/197/151 159/214/167 
f 161/216/169 145/199/153 144/198/152 160/215/168 
f 162/217/170 146/200/154 145/199/153 161/216/169 
f 163/218/171 147/201/155 146/200/154 162/217/170 
f 164/219/172 148/202/156 147/201/155 163/218/171 
f 165/220/173 149/203/157 148/202/156 164/219/172 
f 166/221/174 150/204/158 149/203/157 165/220/173 
f 167/222/175 151/205/159 150/204/158 166/221/174 
f 168/223/176 152/206/160 151/205/159 167/222/175 
f 169/224/177 153/207/161 152/206/160 168/223/176 
f 155/225/163 139/208/147 153/207/161 169/224/177 
f 170/226/178 154/209/162 155/210/163 171/227/179 
f 172/228/180 156/211/164 154/209/162 170/226/178 
f 173/229/181 157/212/165 156/211/164 172/228/180 
f 174/230/182 158/213/166 157/212/165 173/229/181 
f 175/231/183 159/214/167 158/213/166 174/230/182 
f 176/232/184 160/215/168 159/214/167 175/231/183 
f 177/233/185 161/216/169 160/215/168 176/232/184 
f 178/234/186 162/217/170 161/216/169 177/233/185 
f 179/235/187 163/218/171 162/217/170 178/234/186 
f 180/236/188 164/219/172 163/218/171 179/235/187 
f 181/237/189 165/220/173 164/219/172 180/236/188 
f 182/238/190 166/221/174 165/220/173 181/237/189 
f 183/239/191 167/222/175 166/221/174 182/238/190 
f 184/240/192 168/223/176 167/222/175 183/239/191 
f 185/241/193 169/224/177 168/223/176 184/240/192 
f 171/242/179 155/225/163 169/224/177 185/241/193 
f 186/243/194 170/226/178 171/227/179 187/244/195 
f 188/245/196 172/228/180 170/226/178 186/243/194 
f 189/246/197 173/229/181 172/228/180 188/245/196 
f 190/247/198 174/230/182 173/229/181 189/246/197 
f 191/248/199 175/231/183 174/230/182 190/247/198 
f 192/249/200 176/232/184 175/231/183 191/248/199 
f 193/250/201 177/233/185 176/232/184 192/249/200 
f 194/251/202 178/234/186 177/233/185 193/250/201 
f 195/252/203 179/235/187 178/234/186 194/251/202 
f 196/253/204 180/236/188 179/235/187 195/252/203 
f 197/254/205 181/237/189 180/236/188 196/253/204 
f 198/255/206 182/238/190 181/237/189 197/254/205 
f 199/256/207 183/239/191 182/238/190 198/255/206 
f 200/257/208 184/240/192 183/239/191 199/256/207 
f 201/258/209 185/241/193 184/240/192 200/257/208 
f 187/259/195 171/242/179 185/241/193 201/258/209 
f 108/260/210 110/261/211 202/262/212 203/263/213 
f 110/261/211 112/264/214 204/265/215 202/262/212 
f 112/264/214 114/266/216 205/267/217 204/265/215 
f 114/266/216 116/268/218 206/269/219 205/267/217 
f 116/268/218 118/270/220 207/271/221 206/269/219 
f 118/270/220 120/272/222 208/273/223 207/271/221 
f 120/272/222 92/274/224 209/275/225 208/273/223 
f 92/274/224 91/276/226 210/277/227 209/275/225 
f 91/276/226 94/278/228 211/279/229 210/277/227 
f 94/278/228 96/280/230 212/281/231 211/279/229 
f 96/280/230 98/282/232 213/283/233 212/281/231 
f 98/284/232 100/285/234 214/286/235 213/287/233 
f 100/285/234 102/288/236 215/289/237 214/286/235 
f 102/288/236 104/290/238 216/291/239 215/289/237 
f 104/290/238 106/292/240 217/293/241 216/291/239 
f 106/292/240 108/260/210 203/263/213 217/293/241 
f 187/244/195 213/287/233 214/286/235 186/243/194 
f 186/243/194 214/286/235 215/289/237 188/245/196 
f 188/245/196 215/289/237 216/291/239 189/246/197 
f 189/246/197 216/291/239 217/293/241 190/247/198 
f 190/247/198 217/293/241 203/263/213 191/248/199 
f 191/248/199 203/263/213 202/262/212 192/249/200 
f 192/249/200 202/262/212 204/265/215 193/250/201 
f 193/250/201 204/265/215 205/267/217 194/251/202 
f 194/251/202 205/267/217 206/269/219 195/252/203 
f 195/252/203 206/269/219 207/271/221 196/253/204 
f 196/253/204 207/271/221 208/273/223 197/254/205 
f 197/254/205 208/273/223 209/275/225 198/255/206 
f 198/255/206 209/275/225 210/277/227 199/256/207 
f 199/256/207 210/277/227 211/279/229 200/257/208 
f 200/257/208 211/279/229 212/281/231 201/258/209 
f 201/258/209 212/281/231 213/283/233 187/259/195 
# 192 polygons - 32 triangles

