# 3ds Max Wavefront OBJ Exporter v0.97b - (c)2007 guruware
# File Created: 24.09.2017 10:42:10

mtllib FootSoldier.mtl

#
# object FootSoldier
#

v  5.0169 0.0000 -0.0000
v  4.6350 0.0000 -1.9199
v  4.6350 2.5265 -1.9199
v  5.0169 2.5265 -0.0000
v  3.5475 0.0000 -3.5475
v  3.5475 2.5265 -3.5475
v  1.9199 0.0000 -4.6350
v  1.9199 2.5265 -4.6350
v  -0.0000 0.0000 -5.0169
v  -0.0000 2.5265 -5.0169
v  -1.9199 0.0000 -4.6350
v  -1.9199 2.5265 -4.6350
v  -3.5475 0.0000 -3.5475
v  -3.5475 2.5265 -3.5475
v  -4.6350 0.0000 -1.9199
v  -4.6350 2.5265 -1.9199
v  -5.0169 0.0000 -0.0000
v  -5.0169 2.5265 -0.0000
v  -4.6350 0.0000 1.9199
v  -4.6350 2.5265 1.9199
v  -3.5475 0.0000 3.5475
v  -3.5475 2.5265 3.5475
v  -1.9199 0.0000 4.6350
v  -1.9199 2.5265 4.6350
v  0.0000 0.0000 5.0169
v  0.0000 2.5265 5.0169
v  1.9199 0.0000 4.6350
v  1.9199 2.5265 4.6350
v  3.5475 0.0000 3.5475
v  3.5475 2.5265 3.5475
v  4.6350 0.0000 1.9199
v  4.6350 2.5265 1.9199
v  2.4878 2.5265 -1.0305
v  2.6928 2.5265 -0.0000
v  1.9041 2.5265 -1.9041
v  1.0305 2.5265 -2.4878
v  -0.0000 2.5265 -2.6928
v  -1.0305 2.5265 -2.4878
v  -1.9041 2.5265 -1.9041
v  -2.4878 2.5265 -1.0305
v  -2.6928 2.5265 -0.0000
v  -2.4878 2.5265 1.0305
v  -1.9041 2.5265 1.9041
v  -1.0305 2.5265 2.4878
v  0.0000 2.5265 2.6928
v  1.0305 2.5265 2.4878
v  1.9041 2.5265 1.9041
v  2.4878 2.5265 1.0305
v  3.0938 10.2340 -1.2815
v  3.3487 10.2340 -0.0000
v  2.3679 10.2340 -2.3679
v  1.2815 10.2340 -3.0938
v  -0.0000 10.2340 -3.3487
v  -1.2815 10.2340 -3.0938
v  -2.3679 10.2340 -2.3679
v  -3.0938 10.2340 -1.2815
v  -3.3487 10.2340 -0.0000
v  -3.0938 10.2340 1.2815
v  -2.3679 10.2340 2.3679
v  -1.2815 10.2340 3.0938
v  0.0000 10.2340 3.3487
v  1.2815 10.2340 3.0938
v  2.3679 10.2340 2.3679
v  3.0938 10.2340 1.2815
v  3.7523 10.2340 -1.5543
v  4.0615 10.2340 -0.0000
v  2.8719 10.2340 -2.8719
v  1.5543 10.2340 -3.7523
v  -0.0000 10.2340 -4.0615
v  -1.5543 10.2340 -3.7523
v  -2.8719 10.2340 -2.8719
v  -3.7523 10.2340 -1.5543
v  -4.0615 10.2340 -0.0000
v  -3.7523 10.2340 1.5543
v  -2.8719 10.2340 2.8719
v  -1.5543 10.2340 3.7523
v  0.0000 10.2340 4.0615
v  1.5543 10.2340 3.7523
v  2.8719 10.2340 2.8719
v  3.7523 10.2340 1.5543
v  3.4108 12.0454 -1.4128
v  3.6919 12.0454 -0.0000
v  2.6105 12.0454 -2.6105
v  1.4128 12.0454 -3.4108
v  -0.0000 12.0454 -3.6919
v  -1.4128 12.0454 -3.4108
v  -2.6105 12.0454 -2.6105
v  -3.4108 12.0454 -1.4128
v  -3.6919 12.0454 -0.0000
v  -3.4108 12.0454 1.4128
v  -2.6105 12.0454 2.6105
v  -1.4128 12.0454 3.4108
v  0.0000 12.0454 3.6919
v  1.4128 12.0454 3.4108
v  2.6105 12.0454 2.6105
v  3.4108 12.0454 1.4128
v  3.5019 14.0350 -0.0000
v  3.2353 14.0350 -1.3401
v  3.2353 14.4490 -1.3401
v  3.5019 14.4490 -0.0000
v  2.4762 14.0350 -2.4762
v  2.4762 14.4490 -2.4762
v  1.3401 14.0350 -3.2353
v  1.3401 14.4490 -3.2353
v  -0.0000 14.0350 -3.5019
v  -0.0000 14.4490 -3.5019
v  -1.3401 14.0350 -3.2353
v  -1.3401 14.4490 -3.2353
v  -2.4762 14.0350 -2.4762
v  -2.4762 14.4490 -2.4762
v  -3.2353 14.0350 -1.3401
v  -3.2353 14.4490 -1.3401
v  -3.5019 14.0350 -0.0000
v  -3.5019 14.4490 -0.0000
v  -3.2353 14.0350 1.3401
v  -3.2353 14.4490 1.3401
v  -2.4762 14.0350 2.4762
v  -2.4762 14.4490 2.4762
v  -1.3401 14.0350 3.2353
v  -1.3401 14.4490 3.2353
v  0.0000 14.0350 3.5019
v  0.0000 14.4490 3.5019
v  1.3401 14.0350 3.2353
v  1.3401 14.4490 3.2353
v  2.4762 14.0350 2.4762
v  2.4762 14.4490 2.4762
v  3.2353 14.0350 1.3401
v  3.2353 14.4490 1.3401
v  3.7308 18.0397 -1.2018
v  4.0382 18.0397 -0.0000
v  3.6802 16.3334 -0.0000
v  3.4001 16.3334 -1.2366
v  2.8555 18.0397 -2.2206
v  2.6023 16.3334 -2.2849
v  1.5454 18.0397 -2.9014
v  1.4084 16.3334 -2.9854
v  -0.0000 18.0397 -3.1404
v  -0.0000 16.3334 -3.2313
v  -1.4084 16.3334 -2.9854
v  -1.5454 18.0397 -2.9014
v  -2.6023 16.3334 -2.2849
v  -2.8555 18.0397 -2.2206
v  -3.4001 16.3334 -1.2366
v  -3.7308 18.0397 -1.2018
v  -3.6802 16.3334 -0.0000
v  -4.0382 18.0397 -0.0000
v  -3.7308 18.0397 1.2018
v  -3.4001 16.3334 1.2366
v  -2.8555 18.0397 2.2206
v  -2.6023 16.3334 2.2849
v  -1.5454 18.0397 2.9014
v  -1.4084 16.3334 2.9854
v  0.0000 18.0397 3.1404
v  0.0000 16.3334 3.2313
v  1.4084 16.3334 2.9854
v  1.5454 18.0397 2.9014
v  2.6023 16.3334 2.2849
v  2.8555 18.0397 2.2206
v  3.4001 16.3334 1.2366
v  3.7308 18.0397 1.2018
v  4.7543 21.4523 -0.0000
v  4.3924 21.4523 -1.1322
v  1.9606 23.1619 -0.5054
v  2.0247 23.1619 -0.0000
v  3.3618 21.4523 -2.0921
v  1.7190 23.1619 -1.0698
v  1.8194 21.4523 -2.7334
v  1.1219 23.1619 -1.6855
v  -0.0000 21.4523 -2.9586
v  -0.0000 23.1619 -2.0247
v  -1.8194 21.4523 -2.7334
v  -1.1219 23.1619 -1.6855
v  -3.3618 21.4523 -2.0921
v  -1.7190 23.1619 -1.0698
v  -4.3924 21.4523 -1.1322
v  -1.9606 23.1619 -0.5054
v  -4.7543 21.4523 -0.0000
v  -2.0247 23.1619 -0.0000
v  -4.3924 21.4523 1.1322
v  -1.9606 23.1619 0.5054
v  -3.3618 21.4523 2.0921
v  -1.7190 23.1619 1.0698
v  -1.8194 21.4523 2.7334
v  -1.1219 23.1619 1.6855
v  0.0000 21.4523 2.9586
v  0.0000 23.1619 2.0247
v  1.8194 21.4523 2.7334
v  1.1219 23.1619 1.6855
v  3.3618 21.4523 2.0921
v  1.7190 23.1619 1.0698
v  4.3924 21.4523 1.1322
v  1.9606 23.1619 0.5054
v  0.9400 23.1619 -0.2423
v  0.9707 23.1619 -0.0000
v  0.8241 23.1619 -0.5129
v  0.5378 23.1619 -0.8081
v  -0.0000 23.1619 -0.9707
v  -0.5378 23.1619 -0.8081
v  -0.8241 23.1619 -0.5129
v  -0.9400 23.1619 -0.2423
v  -0.9707 23.1619 -0.0000
v  -0.9400 23.1619 0.2423
v  -0.8241 23.1619 0.5129
v  -0.5378 23.1619 0.8081
v  0.0000 23.1619 0.9707
v  0.5378 23.1619 0.8081
v  0.8241 23.1619 0.5129
v  0.9400 23.1619 0.2423
v  0.9400 23.8468 -0.2423
v  0.9707 23.8468 -0.0000
v  0.8241 23.8468 -0.5129
v  0.5378 23.8468 -0.8081
v  -0.0000 23.8468 -0.9707
v  -0.5378 23.8468 -0.8081
v  -0.8241 23.8468 -0.5129
v  -0.9400 23.8468 -0.2423
v  -0.9707 23.8468 -0.0000
v  -0.9400 23.8468 0.2423
v  -0.8241 23.8468 0.5129
v  -0.5378 23.8468 0.8081
v  0.0000 23.8468 0.9707
v  0.5378 23.8468 0.8081
v  0.8241 23.8468 0.5129
v  0.9400 23.8468 0.2423
v  -0.7479 24.3893 1.8055
v  -0.4047 23.7902 0.9771
v  -0.0000 23.7902 1.0576
v  -0.0000 24.3893 1.9542
v  -1.3819 24.3893 1.3819
v  -0.7479 23.7902 0.7479
v  -1.8055 24.3893 0.7479
v  -0.9771 23.7902 0.4047
v  -1.9542 24.3893 0.0000
v  -1.0576 23.7902 -0.0000
v  -1.8055 24.3893 -0.7479
v  -0.9771 23.7902 -0.4047
v  -1.3819 24.3893 -1.3819
v  -0.7479 23.7902 -0.7479
v  -0.7479 24.3893 -1.8055
v  -0.4047 23.7902 -0.9771
v  0.0000 24.3893 -1.9542
v  0.0000 23.7902 -1.0576
v  0.7479 24.3893 -1.8055
v  0.4047 23.7902 -0.9771
v  1.3819 24.3893 -1.3819
v  0.7479 23.7902 -0.7479
v  1.8055 24.3893 -0.7479
v  0.9771 23.7902 -0.4047
v  1.9542 24.3893 0.0000
v  1.0576 23.7902 0.0000
v  1.8055 24.3893 0.7479
v  0.9771 23.7902 0.4047
v  1.3818 24.3893 1.3819
v  0.7479 23.7902 0.7479
v  0.7478 24.3893 1.8055
v  0.4047 23.7902 0.9771
v  -0.9771 25.2859 2.3590
v  -0.0000 25.2859 2.5533
v  -1.8055 25.2859 1.8055
v  -2.3590 25.2859 0.9771
v  -2.5533 25.2859 0.0000
v  -2.3590 25.2859 -0.9771
v  -1.8055 25.2859 -1.8055
v  -0.9771 25.2859 -2.3590
v  0.0000 25.2859 -2.5533
v  0.9771 25.2859 -2.3590
v  1.8055 25.2859 -1.8055
v  2.3590 25.2859 -0.9771
v  2.5533 25.2859 0.0000
v  2.3590 25.2859 0.9771
v  1.8055 25.2859 1.8055
v  0.9771 25.2859 2.3590
v  -1.0576 26.3436 2.5533
v  -0.0000 26.3436 2.7637
v  -1.9542 26.3436 1.9542
v  -2.5533 26.3436 1.0576
v  -2.7637 26.3436 0.0000
v  -2.5533 26.3436 -1.0576
v  -1.9542 26.3436 -1.9542
v  -1.0576 26.3436 -2.5533
v  0.0000 26.3436 -2.7637
v  1.0576 26.3436 -2.5533
v  1.9542 26.3436 -1.9542
v  2.5533 26.3436 -1.0576
v  2.7637 26.3436 0.0000
v  2.5533 26.3436 1.0576
v  1.9542 26.3436 1.9542
v  1.0576 26.3436 2.5533
v  -0.9771 27.4012 2.3590
v  -0.0000 27.4012 2.5533
v  -1.8055 27.4012 1.8055
v  -2.3590 27.4012 0.9771
v  -2.5533 27.4012 0.0000
v  -2.3590 27.4012 -0.9771
v  -1.8055 27.4012 -1.8055
v  -0.9771 27.4012 -2.3590
v  0.0000 27.4012 -2.5533
v  0.9771 27.4012 -2.3590
v  1.8055 27.4012 -1.8055
v  2.3590 27.4012 -0.9771
v  2.5533 27.4012 0.0000
v  2.3590 27.4012 0.9771
v  1.8055 27.4012 1.8055
v  0.9771 27.4012 2.3590
v  5.6684 16.7540 -0.8436
v  5.4639 16.8397 -1.3298
v  5.4639 21.5031 -0.5075
v  5.6684 21.4174 -0.0213
v  4.9702 16.8752 -1.5311
v  4.9702 21.5386 -0.7088
v  4.4766 16.8397 -1.3298
v  4.4766 21.5031 -0.5075
v  4.2721 16.7540 -0.8436
v  4.2721 21.4174 -0.0213
v  4.4766 16.6682 -0.3574
v  4.4766 21.3317 0.4649
v  4.9702 16.6327 -0.1560
v  4.9702 21.2962 0.6662
v  5.4639 16.6682 -0.3574
v  5.4639 21.3317 0.4649
v  5.4522 21.9580 0.0740
v  5.3110 22.0172 -0.2616
v  4.9702 22.1155 0.1018
v  4.9702 22.0417 -0.4006
v  4.6294 22.0172 -0.2616
v  4.4883 21.9580 0.0740
v  4.6294 21.8989 0.4097
v  4.9702 21.8743 0.5487
v  5.3110 21.8989 0.4097
v  4.9702 16.7540 -0.8436
v  5.6684 16.6921 -0.8811
v  5.6684 18.3117 3.5687
v  5.4639 17.8478 3.7375
v  5.4639 16.2282 -0.7123
v  4.9702 17.6556 3.8074
v  4.9702 16.0360 -0.6424
v  4.4766 17.8478 3.7375
v  4.4766 16.2282 -0.7123
v  4.2721 18.3117 3.5687
v  4.2721 16.6921 -0.8811
v  4.4766 18.7756 3.3998
v  4.4766 17.1560 -1.0500
v  4.9702 18.9677 3.3299
v  4.9702 17.3481 -1.1199
v  5.4639 18.7756 3.3998
v  5.4639 17.1560 -1.0500
v  5.4522 18.4994 4.0845
v  4.9702 18.5541 4.2348
v  5.3110 18.1792 4.2011
v  4.9702 18.0465 4.2494
v  4.6294 18.1792 4.2011
v  4.4883 18.4994 4.0845
v  4.6294 18.8197 3.9680
v  4.9702 18.9523 3.9197
v  5.3110 18.8197 3.9680
v  4.9702 16.6921 -0.8811
v  18.6498 26.2383 3.9822
v  -10.8979 8.7835 3.9822
v  -10.8255 8.6610 3.7359
v  18.7222 26.1158 3.7359
v  18.5052 26.4832 3.9822
v  -11.0425 9.0284 3.9822
v  18.4328 26.6056 3.7359
v  -11.1149 9.1508 3.7359
v  18.5052 26.4832 3.4896
v  -11.0425 9.0284 3.4896
v  18.6498 26.2383 3.4896
v  -10.8979 8.7835 3.4896
v  18.9475 25.7344 3.7359
v  18.7625 26.0476 4.3659
v  18.3925 26.6739 4.3659
v  18.2075 26.9871 3.7359
v  18.3925 26.6739 3.1059
v  18.7625 26.0476 3.1059
v  20.5211 27.5089 3.7359
v  -4.2721 16.8457 1.2574
v  -4.4766 16.7179 0.7805
v  -4.4766 21.2919 -0.4451
v  -4.2721 21.4197 0.0317
v  -4.9703 16.6650 0.5830
v  -4.9703 21.2390 -0.6426
v  -5.4639 16.7179 0.7805
v  -5.4639 21.2919 -0.4451
v  -5.6684 16.8457 1.2574
v  -5.6684 21.4197 0.0317
v  -5.4639 16.9735 1.7342
v  -5.4639 21.5475 0.5086
v  -4.9703 17.0264 1.9317
v  -4.9703 21.6004 0.7061
v  -4.4766 16.9735 1.7342
v  -4.4766 21.5475 0.5086
v  -4.4883 21.9500 -0.1103
v  -4.6294 21.8618 -0.4395
v  -4.9703 22.1044 -0.1517
v  -4.9703 21.8252 -0.5759
v  -5.3111 21.8618 -0.4395
v  -5.4522 21.9500 -0.1103
v  -5.3111 22.0382 0.2189
v  -4.9703 22.0747 0.3552
v  -4.6294 22.0382 0.2189
v  -4.2721 16.8214 1.2557
v  -4.2721 12.7204 3.6234
v  -4.4766 12.4736 3.1959
v  -4.4766 16.5745 0.8282
v  -4.9703 12.3713 3.0188
v  -4.9703 16.4723 0.6511
v  -5.4639 12.4736 3.1959
v  -5.4639 16.5745 0.8282
v  -5.6684 12.7204 3.6234
v  -5.6684 16.8214 1.2557
v  -5.4639 12.9673 4.0510
v  -5.4639 17.0682 1.6833
v  -4.9703 13.0695 4.2281
v  -4.9703 17.1705 1.8604
v  -4.4766 12.9673 4.0510
v  -4.4766 17.0682 1.6833
v  -4.4883 12.2450 3.8979
v  -4.9703 12.1065 3.9779
v  -4.6294 12.0746 3.6028
v  -4.9703 12.0040 3.4805
v  -5.3111 12.0746 3.6028
v  -5.4522 12.2450 3.8979
v  -5.3111 12.4154 4.1931
v  -4.9703 12.4860 4.3153
v  -4.6294 12.4154 4.1931
v  3.3222 13.8568 -0.0000
v  3.0693 13.8568 -1.2714
v  2.3492 13.8568 -2.3492
v  1.2714 13.8568 -3.0693
v  -0.0000 13.8568 -3.3222
v  -1.2714 13.8568 -3.0693
v  -2.3492 13.8568 -2.3492
v  -3.0693 13.8568 -1.2714
v  -3.3222 13.8568 -0.0000
v  -3.0693 13.8568 1.2714
v  -2.3492 13.8568 2.3492
v  -1.2714 13.8568 3.0693
v  0.0000 13.8568 3.3222
v  1.2714 13.8568 3.0693
v  2.3492 13.8568 2.3492
v  3.0693 13.8568 1.2714
v  3.0693 14.6271 -1.2714
v  3.3222 14.6271 -0.0000
v  3.0693 14.6271 1.2714
v  2.3492 14.6271 2.3492
v  1.2714 14.6271 3.0693
v  0.0000 14.6271 3.3222
v  -1.2714 14.6271 3.0693
v  -2.3492 14.6271 2.3492
v  -3.0693 14.6271 1.2714
v  -3.3222 14.6271 -0.0000
v  -3.0693 14.6271 -1.2714
v  -2.3492 14.6271 -2.3492
v  -1.2714 14.6271 -3.0693
v  -0.0000 14.6271 -3.3222
v  1.2714 14.6271 -3.0693
v  2.3492 14.6271 -2.3492
v  -1.0501 27.5565 2.6665
v  -1.1348 26.4420 2.8710
v  -0.0000 26.4420 3.0968
v  -0.0000 27.5565 2.8754
v  -1.9402 27.5565 2.0717
v  -2.0968 26.1485 2.2282
v  -2.5351 27.5565 1.1815
v  -2.7396 25.6383 1.2662
v  -2.7439 27.5565 0.1315
v  -2.9653 26.4420 0.1315
v  -2.5351 27.5565 -0.9186
v  -2.7396 26.4420 -1.0033
v  -1.9402 27.5565 -1.8088
v  -2.0968 26.4420 -1.9653
v  -1.0501 27.5565 -2.4036
v  -1.1348 26.4420 -2.6081
v  0.0000 27.5565 -2.6125
v  0.0000 26.4420 -2.8338
v  1.0501 27.5565 -2.4036
v  1.1348 26.4420 -2.6081
v  1.9402 27.5565 -1.8088
v  2.0968 26.4420 -1.9653
v  2.5351 27.5565 -0.9186
v  2.7396 26.4420 -1.0033
v  2.7439 27.5565 0.1315
v  2.9653 26.4420 0.1315
v  2.5351 27.5565 1.1815
v  2.7396 25.6383 1.2662
v  1.9402 27.5565 2.0717
v  2.0968 26.1485 2.2282
v  1.0501 27.5565 2.6665
v  1.1348 26.4420 2.8710
v  -0.8044 28.5191 1.9272
v  -0.0000 28.5191 2.0872
v  -1.4863 28.5191 1.4715
v  -1.9420 28.5191 0.7896
v  -2.1020 28.5191 -0.0148
v  -1.9420 28.5191 -0.8192
v  -1.4863 28.5191 -1.5012
v  -0.8044 28.5191 -1.9568
v  0.0000 28.5191 -2.1168
v  0.8044 28.5191 -1.9568
v  1.4863 28.5191 -1.5012
v  1.9420 28.5191 -0.8192
v  2.1020 28.5191 -0.0148
v  1.9420 28.5191 0.7896
v  1.4863 28.5191 1.4715
v  0.8044 28.5191 1.9272
v  -0.4364 29.1634 0.7101
v  -0.0000 29.1634 0.7969
v  -0.8064 29.1634 0.4628
v  -1.0537 29.1634 0.0928
v  -1.1405 29.1634 -0.3436
v  -1.0537 29.1634 -0.7800
v  -0.8064 29.1634 -1.1500
v  -0.4364 29.1634 -1.3973
v  0.0000 29.1634 -1.4841
v  0.4364 29.1634 -1.3973
v  0.8064 29.1634 -1.1500
v  1.0537 29.1634 -0.7800
v  1.1405 29.1634 -0.3436
v  1.0537 29.1634 0.0928
v  0.8064 29.1634 0.4628
v  0.4364 29.1634 0.7101
v  -0.0000 29.7529 -0.7231
v  -1.0576 26.4420 2.6848
v  -0.0000 26.4420 2.8952
v  1.0576 26.4420 2.6848
v  1.9542 26.1485 2.0857
v  2.5533 25.6383 1.1891
v  2.5533 24.3277 1.1891
v  2.7637 24.3277 0.1315
v  2.9653 24.3277 0.1315
v  2.7396 24.3277 1.2662
v  2.5533 24.3277 -0.9262
v  2.7396 24.3277 -1.0033
v  1.9542 24.3277 -1.8228
v  2.0968 24.3277 -1.9653
v  1.0576 24.3277 -2.4219
v  1.1348 24.3277 -2.6081
v  0.0000 24.3277 -2.6322
v  0.0000 24.3277 -2.8338
v  -1.0576 24.3277 -2.4219
v  -1.1348 24.3277 -2.6081
v  -1.9542 24.3277 -1.8228
v  -2.0968 24.3277 -1.9653
v  -2.5533 24.3277 -0.9262
v  -2.7396 24.3277 -1.0033
v  -2.7637 24.3277 0.1315
v  -2.9653 24.3277 0.1315
v  -2.5533 24.3277 1.1891
v  -2.7396 24.3277 1.2662
v  -2.5533 25.6383 1.1891
v  -1.9542 26.1485 2.0857
v  -2.7637 26.4420 0.1315
v  2.7637 26.4420 0.1315
v  2.5533 26.4420 -0.9262
v  1.9542 26.4420 -1.8228
v  1.0576 26.4420 -2.4219
v  0.0000 26.4420 -2.6322
v  -1.0576 26.4420 -2.4219
v  -1.9542 26.4420 -1.8228
v  -2.5533 26.4420 -0.9262
v  4.3962 19.7460 -0.0000
v  4.0616 19.7460 -1.1670
v  3.1086 19.7460 -2.1563
v  1.6824 19.7460 -2.8174
v  -0.0000 19.7460 -3.0495
v  -1.6824 19.7460 -2.8174
v  -3.1086 19.7460 -2.1563
v  -4.0616 19.7460 -1.1670
v  -4.3962 19.7460 -0.0000
v  -4.0616 19.7460 1.1670
v  -3.1086 19.7460 2.1563
v  -1.6824 19.7460 2.8174
v  0.0000 19.7460 3.0495
v  1.6824 19.7460 2.8174
v  3.1086 19.7460 2.1563
v  4.0616 19.7460 1.1670
# 576 vertices

vn 1.0000 0.0000 -0.0000
vn 0.9239 0.0000 -0.3827
vn 0.7071 0.0000 -0.7071
vn 0.3827 0.0000 -0.9239
vn 0.0000 0.0000 -1.0000
vn -0.3827 0.0000 -0.9239
vn -0.7071 0.0000 -0.7071
vn -0.9239 0.0000 -0.3827
vn -1.0000 0.0000 -0.0000
vn -0.9239 0.0000 0.3827
vn -0.7071 0.0000 0.7071
vn -0.3827 0.0000 0.9239
vn 0.0000 0.0000 1.0000
vn 0.3827 0.0000 0.9239
vn 0.7071 0.0000 0.7071
vn 0.9239 0.0000 0.3827
vn 0.0000 1.0000 -0.0000
vn -0.0000 1.0000 -0.0000
vn 0.9964 -0.0848 -0.0000
vn 0.9206 -0.0848 -0.3813
vn 0.7046 -0.0848 -0.7046
vn 0.3813 -0.0848 -0.9206
vn 0.0000 -0.0848 -0.9964
vn -0.3813 -0.0848 -0.9206
vn -0.7046 -0.0848 -0.7046
vn -0.9206 -0.0848 -0.3813
vn -0.9964 -0.0848 -0.0000
vn -0.9206 -0.0848 0.3813
vn -0.7046 -0.0848 0.7046
vn -0.3813 -0.0848 0.9206
vn 0.0000 -0.0848 0.9964
vn 0.3813 -0.0848 0.9206
vn 0.7046 -0.0848 0.7046
vn 0.9206 -0.0848 0.3813
vn 0.0000 -1.0000 -0.0000
vn 0.9052 0.1999 -0.3750
vn 0.9798 0.1999 -0.0000
vn 0.6928 0.1999 -0.6928
vn 0.3750 0.1999 -0.9052
vn -0.0000 0.1999 -0.9798
vn -0.3750 0.1999 -0.9052
vn -0.6928 0.1999 -0.6928
vn -0.9052 0.1999 -0.3750
vn -0.9798 0.1999 -0.0000
vn -0.9052 0.1999 0.3750
vn -0.6928 0.1999 0.6928
vn -0.3750 0.1999 0.9052
vn 0.0000 0.1999 0.9798
vn 0.3750 0.1999 0.9052
vn 0.6928 0.1999 0.6928
vn 0.9052 0.1999 0.3750
vn 0.9296 -0.3686 0.0000
vn 0.8588 -0.3686 -0.3557
vn 0.8588 0.3686 -0.3557
vn 0.9296 0.3686 0.0000
vn 0.6573 -0.3686 -0.6573
vn 0.6573 0.3686 -0.6573
vn 0.3557 -0.3686 -0.8588
vn 0.3557 0.3686 -0.8588
vn -0.0000 -0.3686 -0.9296
vn -0.0000 0.3686 -0.9296
vn -0.3557 -0.3686 -0.8588
vn -0.3557 0.3686 -0.8588
vn -0.6573 -0.3686 -0.6573
vn -0.6573 0.3686 -0.6573
vn -0.8588 -0.3686 -0.3557
vn -0.8588 0.3686 -0.3557
vn -0.9296 -0.3686 -0.0000
vn -0.9296 0.3686 -0.0000
vn -0.8588 -0.3686 0.3557
vn -0.8588 0.3686 0.3557
vn -0.6573 -0.3686 0.6573
vn -0.6573 0.3686 0.6573
vn -0.3557 -0.3686 0.8588
vn -0.3557 0.3686 0.8588
vn 0.0000 -0.3686 0.9296
vn 0.0000 0.3686 0.9296
vn 0.3557 -0.3686 0.8588
vn 0.3557 0.3686 0.8588
vn 0.6573 -0.3686 0.6573
vn 0.6573 0.3686 0.6573
vn 0.8588 -0.3686 0.3557
vn 0.8588 0.3686 0.3557
vn 0.8753 -0.1538 -0.4584
vn 0.9807 -0.1954 -0.0000
vn 0.9807 -0.1957 -0.0000
vn 0.8939 -0.1579 -0.4195
vn 0.6198 -0.0635 -0.7822
vn 0.6616 -0.0706 -0.7465
vn 0.3121 0.0152 -0.9499
vn 0.3457 0.0116 -0.9383
vn -0.0000 0.0450 -0.9990
vn 0.0000 0.0442 -0.9990
vn -0.3457 0.0116 -0.9383
vn -0.3121 0.0152 -0.9499
vn -0.6616 -0.0706 -0.7465
vn -0.6198 -0.0635 -0.7822
vn -0.8939 -0.1579 -0.4195
vn -0.8753 -0.1538 -0.4584
vn -0.9807 -0.1957 -0.0000
vn -0.9807 -0.1954 -0.0000
vn -0.8753 -0.1538 0.4584
vn -0.8939 -0.1579 0.4195
vn -0.6198 -0.0635 0.7822
vn -0.6616 -0.0706 0.7465
vn -0.3121 0.0152 0.9499
vn -0.3457 0.0116 0.9383
vn 0.0000 0.0450 0.9990
vn 0.0000 0.0442 0.9990
vn 0.3457 0.0116 0.9383
vn 0.3121 0.0152 0.9499
vn 0.6616 -0.0706 0.7465
vn 0.6198 -0.0635 0.7822
vn 0.8939 -0.1579 0.4195
vn 0.8753 -0.1538 0.4584
vn 0.5404 0.8414 -0.0000
vn 0.5199 0.8169 -0.2498
vn 0.5152 0.8115 -0.2758
vn 0.4502 0.7359 -0.5058
vn 0.4381 0.7220 -0.5355
vn 0.2896 0.6040 -0.7425
vn 0.2738 0.5944 -0.7562
vn -0.0000 0.5262 -0.8504
vn -0.2896 0.6040 -0.7425
vn -0.2738 0.5944 -0.7562
vn -0.4502 0.7359 -0.5058
vn -0.4381 0.7220 -0.5355
vn -0.5199 0.8169 -0.2498
vn -0.5152 0.8115 -0.2758
vn -0.5404 0.8414 -0.0000
vn -0.5199 0.8169 0.2498
vn -0.5152 0.8115 0.2758
vn -0.4502 0.7359 0.5058
vn -0.4381 0.7220 0.5355
vn -0.2896 0.6040 0.7425
vn -0.2738 0.5944 0.7562
vn 0.0000 0.5262 0.8504
vn 0.2896 0.6040 0.7425
vn 0.2738 0.5944 0.7562
vn 0.4502 0.7359 0.5058
vn 0.4381 0.7220 0.5355
vn 0.5199 0.8169 0.2498
vn 0.5152 0.8115 0.2758
vn 0.9650 0.0000 -0.2622
vn 0.8324 0.0000 -0.5541
vn 0.5203 0.0000 -0.8540
vn -0.0000 0.0000 -1.0000
vn -0.5203 0.0000 -0.8540
vn -0.8324 0.0000 -0.5541
vn -0.9650 0.0000 -0.2622
vn -0.9650 0.0000 0.2622
vn -0.8324 0.0000 0.5541
vn -0.5203 0.0000 0.8540
vn 0.5203 0.0000 0.8540
vn 0.8324 0.0000 0.5541
vn 0.9650 0.0000 0.2622
vn -0.2751 -0.6952 0.6641
vn -0.2126 -0.8315 0.5133
vn -0.0000 -0.8315 0.5556
vn -0.0000 -0.6952 0.7189
vn -0.5083 -0.6952 0.5083
vn -0.3928 -0.8315 0.3928
vn -0.6641 -0.6952 0.2751
vn -0.5133 -0.8315 0.2126
vn -0.7189 -0.6952 0.0000
vn -0.5556 -0.8315 0.0000
vn -0.6641 -0.6952 -0.2751
vn -0.5133 -0.8315 -0.2126
vn -0.5083 -0.6952 -0.5083
vn -0.3928 -0.8315 -0.3928
vn -0.2751 -0.6952 -0.6641
vn -0.2126 -0.8315 -0.5133
vn 0.0000 -0.6952 -0.7189
vn 0.0000 -0.8315 -0.5556
vn 0.2751 -0.6952 -0.6641
vn 0.2126 -0.8315 -0.5133
vn 0.5083 -0.6952 -0.5083
vn 0.3928 -0.8315 -0.3928
vn 0.6641 -0.6952 -0.2751
vn 0.5133 -0.8315 -0.2126
vn 0.7189 -0.6952 0.0000
vn 0.5556 -0.8315 0.0000
vn 0.6641 -0.6952 0.2751
vn 0.5133 -0.8315 0.2126
vn 0.5083 -0.6952 0.5083
vn 0.3928 -0.8315 0.3928
vn 0.2751 -0.6952 0.6641
vn 0.2126 -0.8315 0.5133
vn -0.3549 -0.3744 0.8567
vn -0.0000 -0.3744 0.9273
vn -0.6557 -0.3744 0.6557
vn -0.8567 -0.3744 0.3549
vn -0.9273 -0.3744 0.0000
vn -0.8567 -0.3744 -0.3549
vn -0.6557 -0.3744 -0.6557
vn -0.3549 -0.3744 -0.8567
vn 0.0000 -0.3744 -0.9273
vn 0.3549 -0.3744 -0.8567
vn 0.6557 -0.3744 -0.6557
vn 0.8567 -0.3744 -0.3549
vn 0.9273 -0.3744 0.0000
vn 0.8567 -0.3744 0.3549
vn 0.6557 -0.3744 0.6557
vn 0.3549 -0.3744 0.8567
vn -0.3827 -0.0000 0.9239
vn -0.0000 -0.0000 1.0000
vn -0.7071 -0.0000 0.7071
vn -0.9239 -0.0000 0.3827
vn -1.0000 -0.0000 0.0000
vn 1.0000 0.0000 0.0000
vn 0.9239 -0.0000 0.3827
vn 0.7071 -0.0000 0.7071
vn 0.3827 -0.0000 0.9239
vn -0.3753 0.1951 0.9061
vn -0.0000 0.1951 0.9808
vn -0.6935 0.1951 0.6935
vn -0.9061 0.1951 0.3753
vn -0.9808 0.1951 0.0000
vn -0.9061 0.1951 -0.3753
vn -0.6935 0.1951 -0.6935
vn -0.3753 0.1951 -0.9061
vn 0.0000 0.1951 -0.9808
vn 0.3753 0.1951 -0.9061
vn 0.6935 0.1951 -0.6935
vn 0.9061 0.1951 -0.3753
vn 0.9808 0.1951 0.0000
vn 0.9061 0.1951 0.3753
vn 0.6935 0.1951 0.6935
vn 0.3753 0.1951 0.9061
vn 0.7071 0.1228 -0.6964
vn 0.6957 0.2967 -0.6541
vn 0.9839 0.1759 0.0310
vn -0.0000 0.1736 -0.9848
vn -0.0000 0.3468 -0.9379
vn -0.7071 0.1228 -0.6964
vn -0.6957 0.2967 -0.6541
vn -0.9839 0.1759 0.0310
vn -0.7071 -0.1228 0.6964
vn -0.6957 0.0551 0.7162
vn 0.0000 -0.1736 0.9848
vn 0.0000 0.0051 1.0000
vn 0.7071 -0.1228 0.6964
vn 0.6957 0.0551 0.7162
vn 0.7355 0.6672 0.1176
vn 0.5201 0.7575 -0.3945
vn 0.0000 0.9848 0.1736
vn 0.0000 0.7949 -0.6067
vn -0.5201 0.7575 -0.3945
vn -0.7355 0.6672 0.1176
vn -0.5201 0.5769 0.6298
vn 0.0000 0.5395 0.8420
vn 0.5201 0.5769 0.6298
vn 0.0000 -0.9848 -0.1736
vn -0.0000 -0.9848 -0.1736
vn 1.0000 -0.0000 0.0000
vn 0.9839 0.0611 0.1679
vn 0.6957 -0.5927 0.4058
vn 0.7071 -0.6645 0.2418
vn -0.0000 -0.8635 0.5044
vn -0.0000 -0.9397 0.3420
vn -0.6957 -0.5927 0.4058
vn -0.7071 -0.6645 0.2418
vn -0.9839 0.0611 0.1679
vn -0.6957 0.7149 -0.0701
vn -0.7071 0.6645 -0.2418
vn 0.0000 0.9857 -0.1687
vn 0.0000 0.9397 -0.3420
vn 0.6957 0.7149 -0.0701
vn 0.7071 0.6645 -0.2418
vn 0.7355 0.2317 0.6367
vn -0.0000 0.3420 0.9397
vn 0.5201 -0.2570 0.8145
vn -0.0000 -0.4594 0.8882
vn -0.5201 -0.2570 0.8145
vn -0.7355 0.2317 0.6367
vn -0.5201 0.7204 0.4588
vn -0.0000 0.9229 0.3851
vn 0.5201 0.7204 0.4588
vn 0.0000 -0.3420 -0.9397
vn 0.2543 -0.4305 0.8660
vn 0.5086 -0.8610 -0.0000
vn -0.2543 0.4305 0.8660
vn -0.5086 0.8610 0.0000
vn -0.5086 0.8610 -0.0000
vn -0.2543 0.4305 -0.8660
vn 0.2543 -0.4305 -0.8660
vn -0.8610 -0.5086 0.0000
vn -0.8610 -0.5086 -0.0000
vn 0.5061 -0.2537 0.8243
vn 0.7482 -0.6635 0.0000
vn 0.8610 0.5086 0.0000
vn 0.0220 0.5658 0.8243
vn -0.2200 0.9755 0.0000
vn 0.0220 0.5658 -0.8243
vn 0.5061 -0.2537 -0.8243
vn 1.0000 -0.0000 -0.0000
vn 0.7071 -0.1830 -0.6830
vn 0.6957 -0.0075 -0.7183
vn 0.9839 0.1726 -0.0462
vn 0.0000 -0.2588 -0.9659
vn 0.0000 -0.0821 -0.9966
vn -0.7071 -0.1830 -0.6830
vn -0.6957 -0.0075 -0.7183
vn -1.0000 -0.0000 -0.0000
vn -0.9839 0.1726 -0.0462
vn -0.7071 0.1830 0.6830
vn -0.6957 0.3526 0.6258
vn 0.0000 0.2588 0.9659
vn 0.0000 0.4272 0.9042
vn 0.7071 0.1830 0.6830
vn 0.6957 0.3526 0.6258
vn 0.7355 0.6544 -0.1754
vn 0.5201 0.5198 -0.6777
vn -0.0000 0.9659 -0.2588
vn 0.0000 0.4641 -0.8858
vn -0.5201 0.5198 -0.6777
vn -0.7355 0.6544 -0.1754
vn -0.5201 0.7890 0.3270
vn 0.0000 0.8448 0.5351
vn 0.5201 0.7890 0.3270
vn 0.9839 -0.1547 0.0893
vn 0.6957 -0.5026 -0.5132
vn 0.7071 -0.3536 -0.6124
vn 0.0000 -0.6467 -0.7628
vn 0.0000 -0.5000 -0.8660
vn -0.6957 -0.5026 -0.5132
vn -0.7071 -0.3536 -0.6124
vn -0.9839 -0.1547 0.0893
vn -0.6957 0.1932 0.6918
vn -0.7071 0.3536 0.6124
vn -0.0000 0.3373 0.9414
vn -0.0000 0.5000 0.8660
vn 0.6957 0.1932 0.6918
vn 0.7071 0.3536 0.6124
vn 0.7355 -0.5868 0.3388
vn -0.0000 -0.8660 0.5000
vn 0.5201 -0.8468 -0.1116
vn 0.0000 -0.9545 -0.2982
vn -0.5201 -0.8468 -0.1116
vn -0.7355 -0.5868 0.3388
vn -0.5201 -0.3267 0.7892
vn -0.0000 -0.2190 0.9757
vn 0.5201 -0.3267 0.7892
vn 0.7041 -0.7101 0.0000
vn 0.6505 -0.7101 -0.2694
vn 0.4979 -0.7101 -0.4979
vn 0.2694 -0.7101 -0.6505
vn -0.0000 -0.7101 -0.7041
vn -0.2694 -0.7101 -0.6505
vn -0.4979 -0.7101 -0.4979
vn -0.6505 -0.7101 -0.2694
vn -0.7041 -0.7101 -0.0000
vn -0.6505 -0.7101 0.2694
vn -0.4979 -0.7101 0.4979
vn -0.2694 -0.7101 0.6505
vn 0.0000 -0.7101 0.7041
vn 0.2694 -0.7101 0.6505
vn 0.4979 -0.7101 0.4979
vn 0.6505 -0.7101 0.2694
vn 0.6505 0.7101 -0.2695
vn 0.7041 0.7101 0.0000
vn 0.6505 0.7101 0.2694
vn 0.4979 0.7101 0.4979
vn 0.2694 0.7101 0.6505
vn 0.0000 0.7101 0.7041
vn -0.2694 0.7101 0.6505
vn -0.4979 0.7101 0.4979
vn -0.6505 0.7101 0.2694
vn -0.7041 0.7101 -0.0000
vn -0.6505 0.7101 -0.2694
vn -0.4979 0.7101 -0.4979
vn -0.2694 0.7101 -0.6505
vn -0.0000 0.7101 -0.7041
vn 0.2695 0.7101 -0.6505
vn 0.4979 0.7101 -0.4979
vn -0.3534 0.4080 0.8418
vn -0.4008 0.1834 0.8976
vn -0.0000 0.1948 0.9808
vn -0.0000 0.4157 0.9095
vn -0.6603 0.3845 0.6452
vn -0.7451 0.1482 0.6503
vn -0.8566 0.3631 0.3666
vn -0.9522 0.0669 0.2982
vn -0.9316 0.3630 0.0198
vn -0.9950 0.0985 0.0174
vn -0.8653 0.3564 -0.3524
vn -0.9195 0.0967 -0.3809
vn -0.6682 0.3400 -0.6618
vn -0.7038 0.0967 -0.7038
vn -0.3638 0.3284 -0.8717
vn -0.3809 0.0967 -0.9195
vn 0.0000 0.3243 -0.9460
vn 0.0000 0.0967 -0.9953
vn 0.3638 0.3284 -0.8717
vn 0.3809 0.0967 -0.9195
vn 0.6682 0.3400 -0.6618
vn 0.7038 0.0967 -0.7038
vn 0.8653 0.3564 -0.3524
vn 0.9195 0.0967 -0.3809
vn 0.9316 0.3630 0.0198
vn 0.9950 0.0985 0.0174
vn 0.8566 0.3631 0.3666
vn 0.9522 0.0669 0.2982
vn 0.6603 0.3845 0.6452
vn 0.7451 0.1482 0.6503
vn 0.3534 0.4080 0.8418
vn 0.4008 0.1834 0.8976
vn -0.2475 0.7642 0.5956
vn -0.0000 0.7688 0.6395
vn -0.4684 0.7503 0.4666
vn -0.6348 0.7270 0.2617
vn -0.7188 0.6952 -0.0003
vn -0.6967 0.6572 -0.2875
vn -0.5569 0.6187 -0.5542
vn -0.3108 0.5887 -0.7463
vn 0.0000 0.5772 -0.8166
vn 0.3108 0.5887 -0.7463
vn 0.5569 0.6187 -0.5542
vn 0.6967 0.6572 -0.2875
vn 0.7188 0.6952 -0.0003
vn 0.6348 0.7270 0.2617
vn 0.4684 0.7503 0.4666
vn 0.2475 0.7642 0.5956
vn -0.1609 0.9093 0.3838
vn -0.0000 0.9123 0.4094
vn -0.3111 0.8997 0.3062
vn -0.4362 0.8826 0.1752
vn -0.5154 0.8569 -0.0063
vn -0.5220 0.8232 -0.2234
vn -0.4333 0.7859 -0.4412
vn -0.2479 0.7552 -0.6067
vn -0.0000 0.7432 -0.6691
vn 0.2479 0.7552 -0.6067
vn 0.4333 0.7859 -0.4412
vn 0.5220 0.8232 -0.2234
vn 0.5154 0.8569 -0.0063
vn 0.4362 0.8826 0.1752
vn 0.3111 0.8997 0.3062
vn 0.1609 0.9093 0.3838
vn 0.0000 0.9891 -0.1471
vn -0.2112 -0.9672 0.1411
vn -0.2307 -0.9097 0.3453
vn 0.2307 -0.9097 0.3453
vn 0.2112 -0.9672 0.1411
vn 0.9987 0.0000 0.0509
vn 0.9808 0.0000 -0.1951
vn -0.9808 0.0000 0.1951
vn 0.9808 0.0000 0.1951
vn -0.9808 0.0000 -0.1951
vn -0.9987 0.0000 0.0509
vn 0.8546 -0.1508 -0.4968
vn 0.9808 -0.1949 -0.0000
vn 0.9808 -0.1951 -0.0000
vn 0.8554 -0.1496 -0.4959
vn 0.9806 -0.1958 -0.0000
vn 0.8986 -0.1579 -0.4094
vn 0.5729 -0.0576 -0.8176
vn 0.5794 -0.0567 -0.8130
vn 0.6712 -0.0701 -0.7379
vn 0.2761 0.0184 -0.9609
vn 0.2826 0.0184 -0.9591
vn 0.3527 0.0118 -0.9357
vn 0.0000 0.0460 -0.9989
vn -0.0000 0.0456 -0.9990
vn 0.0000 0.0437 -0.9990
vn -0.2826 0.0184 -0.9591
vn -0.2761 0.0184 -0.9609
vn -0.3527 0.0118 -0.9357
vn -0.5794 -0.0567 -0.8130
vn -0.5729 -0.0576 -0.8176
vn -0.6712 -0.0701 -0.7379
vn -0.8554 -0.1496 -0.4959
vn -0.8546 -0.1508 -0.4968
vn -0.8986 -0.1579 -0.4094
vn -0.9808 -0.1951 -0.0000
vn -0.9808 -0.1949 -0.0000
vn -0.9806 -0.1958 -0.0000
vn -0.8546 -0.1508 0.4968
vn -0.8554 -0.1496 0.4959
vn -0.8986 -0.1579 0.4094
vn -0.5729 -0.0576 0.8176
vn -0.5794 -0.0567 0.8130
vn -0.6712 -0.0701 0.7379
vn -0.2761 0.0184 0.9609
vn -0.2826 0.0184 0.9591
vn -0.3527 0.0118 0.9357
vn 0.0000 0.0460 0.9989
vn 0.0000 0.0456 0.9990
vn 0.0000 0.0437 0.9990
vn 0.2826 0.0184 0.9591
vn 0.2761 0.0184 0.9609
vn 0.3527 0.0118 0.9357
vn 0.5794 -0.0567 0.8130
vn 0.5729 -0.0576 0.8176
vn 0.6712 -0.0701 0.7379
vn 0.8554 -0.1496 0.4959
vn 0.8546 -0.1508 0.4968
vn 0.8986 -0.1579 0.4094
# 498 vertex normals

vt 0.0514 0.6583 0.0000
vt 0.0514 0.6037 0.0000
vt 0.1219 0.6037 0.0000
vt 0.1219 0.6583 0.0000
vt 0.0514 0.5491 0.0000
vt 0.1219 0.5491 0.0000
vt 0.0514 0.4945 0.0000
vt 0.1219 0.4945 0.0000
vt 0.0514 0.4399 0.0000
vt 0.1219 0.4399 0.0000
vt 0.0514 0.3853 0.0000
vt 0.1219 0.3853 0.0000
vt 0.0514 0.3307 0.0000
vt 0.1219 0.3307 0.0000
vt 0.0514 0.2761 0.0000
vt 0.1219 0.2761 0.0000
vt 0.0514 0.2216 0.0000
vt 0.1219 0.2216 0.0000
vt 0.0514 0.1670 0.0000
vt 0.1219 0.1670 0.0000
vt 0.0514 0.1124 0.0000
vt 0.1219 0.1124 0.0000
vt 0.0514 0.0578 0.0000
vt 0.1219 0.0578 0.0000
vt 0.0514 0.0032 0.0000
vt 0.1219 0.0032 0.0000
vt 0.0514 0.8766 0.0000
vt 0.0514 0.8220 0.0000
vt 0.1219 0.8220 0.0000
vt 0.1219 0.8766 0.0000
vt 0.0514 0.7675 0.0000
vt 0.1219 0.7675 0.0000
vt 0.0514 0.7129 0.0000
vt 0.1219 0.7129 0.0000
vt 0.9660 0.1443 0.0000
vt 0.9554 0.1979 0.0000
vt 0.8955 0.1731 0.0000
vt 0.9012 0.1443 0.0000
vt 0.9250 0.2432 0.0000
vt 0.8792 0.1974 0.0000
vt 0.8797 0.2736 0.0000
vt 0.8549 0.2137 0.0000
vt 0.8261 0.2842 0.0000
vt 0.8261 0.2194 0.0000
vt 0.7726 0.2736 0.0000
vt 0.7974 0.2137 0.0000
vt 0.7272 0.2432 0.0000
vt 0.7730 0.1974 0.0000
vt 0.6969 0.1979 0.0000
vt 0.7567 0.1731 0.0000
vt 0.6862 0.1443 0.0000
vt 0.7510 0.1443 0.0000
vt 0.6969 0.0908 0.0000
vt 0.7567 0.1156 0.0000
vt 0.7272 0.0454 0.0000
vt 0.7730 0.0912 0.0000
vt 0.7726 0.0151 0.0000
vt 0.7974 0.0749 0.0000
vt 0.8261 0.0044 0.0000
vt 0.8261 0.0692 0.0000
vt 0.8797 0.0151 0.0000
vt 0.8549 0.0749 0.0000
vt 0.9250 0.0454 0.0000
vt 0.8792 0.0912 0.0000
vt 0.9554 0.0908 0.0000
vt 0.8955 0.1156 0.0000
vt 0.5281 0.0276 -0.0000
vt 0.5571 0.0233 0.0000
vt 0.5925 0.2361 0.0000
vt 0.5565 0.2415 -0.0000
vt 0.5859 0.0180 0.0000
vt 0.6284 0.2295 0.0000
vt 0.6145 0.0118 -0.0000
vt 0.6640 0.2217 -0.0000
vt 0.6429 0.0046 -0.0000
vt 0.6993 0.2128 -0.0000
vt 0.1795 0.0046 -0.0000
vt 0.2079 0.0117 0.0000
vt 0.1584 0.2217 0.0000
vt 0.1231 0.2128 -0.0000
vt 0.2365 0.0180 0.0000
vt 0.1940 0.2295 0.0000
vt 0.2653 0.0233 -0.0000
vt 0.2299 0.2361 -0.0000
vt 0.2943 0.0276 -0.0000
vt 0.2659 0.2415 -0.0000
vt 0.3234 0.0310 -0.0000
vt 0.3021 0.2457 -0.0000
vt 0.3526 0.0334 0.0000
vt 0.3384 0.2487 0.0000
vt 0.3819 0.0348 0.0000
vt 0.3748 0.2505 0.0000
vt 0.4112 0.0353 -0.0000
vt 0.4112 0.2511 -0.0000
vt 0.4405 0.0348 -0.0000
vt 0.4476 0.2505 -0.0000
vt 0.4698 0.0334 -0.0000
vt 0.4840 0.2487 -0.0000
vt 0.4990 0.0310 -0.0000
vt 0.5203 0.2457 -0.0000
vt 0.9481 0.6554 0.0000
vt 0.9410 0.6197 0.0000
vt 0.9594 0.6121 0.0000
vt 0.9680 0.6554 0.0000
vt 0.9208 0.5894 0.0000
vt 0.9348 0.5753 0.0000
vt 0.8905 0.5691 0.0000
vt 0.8981 0.5508 0.0000
vt 0.8547 0.5620 0.0000
vt 0.8547 0.5421 0.0000
vt 0.8190 0.5691 0.0000
vt 0.8114 0.5508 0.0000
vt 0.7887 0.5894 0.0000
vt 0.7746 0.5753 0.0000
vt 0.7684 0.6197 0.0000
vt 0.7501 0.6121 0.0000
vt 0.7613 0.6554 0.0000
vt 0.7415 0.6554 0.0000
vt 0.7684 0.6911 0.0000
vt 0.7501 0.6988 0.0000
vt 0.7887 0.7214 0.0000
vt 0.7746 0.7355 0.0000
vt 0.8190 0.7417 0.0000
vt 0.8114 0.7601 0.0000
vt 0.8547 0.7488 0.0000
vt 0.8547 0.7687 0.0000
vt 0.8905 0.7417 0.0000
vt 0.8981 0.7601 0.0000
vt 0.9208 0.7214 0.0000
vt 0.9348 0.7355 0.0000
vt 0.9410 0.6911 0.0000
vt 0.9594 0.6988 0.0000
vt 0.6694 0.4885 0.0000
vt 0.6498 0.5362 0.0000
vt 0.6121 0.5224 0.0000
vt 0.6278 0.4734 0.0000
vt 0.7096 0.5068 0.0000
vt 0.6864 0.5528 0.0000
vt 0.7482 0.5282 0.0000
vt 0.7215 0.5723 0.0000
vt 0.7851 0.5525 0.0000
vt 0.7551 0.5944 0.0000
vt 0.1596 0.5282 0.0000
vt 0.1863 0.5723 0.0000
vt 0.1528 0.5945 0.0000
vt 0.1227 0.5526 0.0000
vt 0.1983 0.5068 0.0000
vt 0.2215 0.5529 0.0000
vt 0.2385 0.4885 0.0000
vt 0.2580 0.5362 0.0000
vt 0.2800 0.4734 0.0000
vt 0.2958 0.5225 0.0000
vt 0.3226 0.4615 0.0000
vt 0.3345 0.5117 0.0000
vt 0.3659 0.4530 0.0000
vt 0.3739 0.5039 0.0000
vt 0.4098 0.4479 0.0000
vt 0.4138 0.4993 0.0000
vt 0.4539 0.4462 0.0000
vt 0.4539 0.4977 0.0000
vt 0.4981 0.4479 0.0000
vt 0.4941 0.4993 0.0000
vt 0.5419 0.4530 0.0000
vt 0.5340 0.5039 0.0000
vt 0.5853 0.4615 0.0000
vt 0.5734 0.5117 0.0000
vt 0.9790 0.5473 -0.0000
vt 0.9790 0.5098 0.0000
vt 0.9906 0.5098 0.0000
vt 0.9906 0.5473 -0.0000
vt 0.9790 0.4723 0.0000
vt 0.9906 0.4723 0.0000
vt 0.9791 0.4348 -0.0000
vt 0.9905 0.4348 -0.0000
vt 0.9789 0.3969 -0.0000
vt 0.9907 0.3969 -0.0000
vt 0.9789 0.9978 -0.0000
vt 0.9791 0.9600 0.0000
vt 0.9905 0.9600 0.0000
vt 0.9907 0.9978 -0.0000
vt 0.9790 0.9224 0.0000
vt 0.9906 0.9224 0.0000
vt 0.9790 0.8849 -0.0000
vt 0.9906 0.8849 -0.0000
vt 0.9790 0.8474 -0.0000
vt 0.9906 0.8474 -0.0000
vt 0.9790 0.8099 -0.0000
vt 0.9906 0.8099 -0.0000
vt 0.9790 0.7724 0.0000
vt 0.9906 0.7724 0.0000
vt 0.9790 0.7349 0.0000
vt 0.9906 0.7349 0.0000
vt 0.9790 0.6974 -0.0000
vt 0.9906 0.6974 -0.0000
vt 0.9790 0.6599 -0.0000
vt 0.9906 0.6599 -0.0000
vt 0.9790 0.6224 -0.0000
vt 0.9906 0.6224 -0.0000
vt 0.9790 0.5848 -0.0000
vt 0.9906 0.5848 -0.0000
vt 0.6300 0.3603 0.0000
vt 0.5953 0.3595 -0.0000
vt 0.5979 0.3109 -0.0000
vt 0.6356 0.3121 0.0000
vt 0.6675 0.3603 0.0000
vt 0.6735 0.3125 0.0000
vt 0.7087 0.3594 -0.0000
vt 0.7121 0.3116 -0.0000
vt 0.7524 0.3586 -0.0000
vt 0.7520 0.3109 -0.0000
vt 0.1654 0.3116 0.0000
vt 0.1687 0.3594 0.0000
vt 0.1250 0.3586 -0.0000
vt 0.1254 0.3109 -0.0000
vt 0.2040 0.3125 0.0000
vt 0.2099 0.3603 0.0000
vt 0.2419 0.3121 -0.0000
vt 0.2475 0.3603 -0.0000
vt 0.2796 0.3109 -0.0000
vt 0.2821 0.3595 -0.0000
vt 0.3167 0.3568 -0.0000
vt 0.3171 0.3082 -0.0000
vt 0.3540 0.3528 0.0000
vt 0.3559 0.3046 0.0000
vt 0.3951 0.3493 0.0000
vt 0.3966 0.3015 0.0000
vt 0.4387 0.3479 -0.0000
vt 0.4387 0.3002 -0.0000
vt 0.4808 0.3015 -0.0000
vt 0.4824 0.3493 -0.0000
vt 0.5215 0.3046 -0.0000
vt 0.5235 0.3528 -0.0000
vt 0.5603 0.3082 -0.0000
vt 0.5608 0.3568 -0.0000
vt 0.6243 0.9020 0.0000
vt 0.6139 0.9385 0.0000
vt 0.5324 0.9133 0.0000
vt 0.5338 0.9035 0.0000
vt 0.5834 0.9693 0.0000
vt 0.5263 0.9246 0.0000
vt 0.5375 0.9902 0.0000
vt 0.5107 0.9370 0.0000
vt 0.4830 0.9981 0.0000
vt 0.4821 0.9435 0.0000
vt 0.4283 0.9919 0.0000
vt 0.4533 0.9379 0.0000
vt 0.3818 0.9726 0.0000
vt 0.4373 0.9261 0.0000
vt 0.3502 0.9428 0.0000
vt 0.4309 0.9149 0.0000
vt 0.3387 0.9067 0.0000
vt 0.4292 0.9052 0.0000
vt 0.3491 0.8703 0.0000
vt 0.4306 0.8955 0.0000
vt 0.3796 0.8394 0.0000
vt 0.4367 0.8841 0.0000
vt 0.4255 0.8186 0.0000
vt 0.4523 0.8717 0.0000
vt 0.4800 0.8106 0.0000
vt 0.4809 0.8652 0.0000
vt 0.5347 0.8168 0.0000
vt 0.5096 0.8708 0.0000
vt 0.5812 0.8361 0.0000
vt 0.5256 0.8827 0.0000
vt 0.6127 0.8660 0.0000
vt 0.5320 0.8938 0.0000
vt 0.8854 0.1449 0.0000
vt 0.8836 0.1590 0.0000
vt 0.8551 0.1516 0.0000
vt 0.8560 0.1449 0.0000
vt 0.8768 0.1747 0.0000
vt 0.8519 0.1592 0.0000
vt 0.8602 0.1919 0.0000
vt 0.8439 0.1674 0.0000
vt 0.8289 0.2013 0.0000
vt 0.8289 0.1720 0.0000
vt 0.7976 0.1919 0.0000
vt 0.8139 0.1674 0.0000
vt 0.7810 0.1747 0.0000
vt 0.8059 0.1592 0.0000
vt 0.7742 0.1590 0.0000
vt 0.8027 0.1516 0.0000
vt 0.7724 0.1449 0.0000
vt 0.8018 0.1449 0.0000
vt 0.7742 0.1308 0.0000
vt 0.8027 0.1381 0.0000
vt 0.7810 0.1151 0.0000
vt 0.8059 0.1306 0.0000
vt 0.7976 0.0979 0.0000
vt 0.8139 0.1223 0.0000
vt 0.8289 0.0884 0.0000
vt 0.8289 0.1178 0.0000
vt 0.8602 0.0979 0.0000
vt 0.8439 0.1223 0.0000
vt 0.8768 0.1151 0.0000
vt 0.8519 0.1306 0.0000
vt 0.8836 0.1308 0.0000
vt 0.8551 0.1381 0.0000
vt 0.2035 0.9062 0.0000
vt 0.2103 0.9062 0.0000
vt 0.2103 0.9253 0.0000
vt 0.2035 0.9253 0.0000
vt 0.2185 0.9062 0.0000
vt 0.2185 0.9253 0.0000
vt 0.2299 0.9062 0.0000
vt 0.2299 0.9253 0.0000
vt 0.2456 0.9062 0.0000
vt 0.2456 0.9253 0.0000
vt 0.2613 0.9062 0.0000
vt 0.2613 0.9253 0.0000
vt 0.2728 0.9062 0.0000
vt 0.2728 0.9253 0.0000
vt 0.2810 0.9062 0.0000
vt 0.2810 0.9253 0.0000
vt 0.2878 0.9062 0.0000
vt 0.2878 0.9253 0.0000
vt 0.2946 0.9062 0.0000
vt 0.2946 0.9253 0.0000
vt 0.3028 0.9062 0.0000
vt 0.3028 0.9253 0.0000
vt 0.3143 0.9062 0.0000
vt 0.3143 0.9253 0.0000
vt 0.3299 0.9062 0.0000
vt 0.3299 0.9253 0.0000
vt 0.1613 0.9062 0.0000
vt 0.1770 0.9062 0.0000
vt 0.1770 0.9253 0.0000
vt 0.1613 0.9253 0.0000
vt 0.1884 0.9062 0.0000
vt 0.1884 0.9253 0.0000
vt 0.1966 0.9062 0.0000
vt 0.1966 0.9253 0.0000
vt 0.5798 0.7367 0.0000
vt 0.5757 0.7062 0.0000
vt 0.5793 0.7050 0.0000
vt 0.5947 0.7316 0.0000
vt 0.5640 0.7357 0.0000
vt 0.5720 0.7060 0.0000
vt 0.5499 0.7287 0.0000
vt 0.5686 0.7043 0.0000
vt 0.5394 0.7169 0.0000
vt 0.5661 0.7015 0.0000
vt 0.5344 0.7020 0.0000
vt 0.5648 0.6979 0.0000
vt 0.5354 0.6862 0.0000
vt 0.5651 0.6941 0.0000
vt 0.5423 0.6720 0.0000
vt 0.5668 0.6907 0.0000
vt 0.5542 0.6616 0.0000
vt 0.5696 0.6882 0.0000
vt 0.5691 0.6565 0.0000
vt 0.5732 0.6870 0.0000
vt 0.5849 0.6576 0.0000
vt 0.5769 0.6873 0.0000
vt 0.5990 0.6645 0.0000
vt 0.5803 0.6889 0.0000
vt 0.6094 0.6764 0.0000
vt 0.5828 0.6918 0.0000
vt 0.6145 0.6913 0.0000
vt 0.5841 0.6954 0.0000
vt 0.6135 0.7070 0.0000
vt 0.5838 0.6991 0.0000
vt 0.6066 0.7212 0.0000
vt 0.5821 0.7025 0.0000
vt 0.5835 0.7646 0.0000
vt 0.6088 0.7560 0.0000
vt 0.5568 0.7629 0.0000
vt 0.5328 0.7511 0.0000
vt 0.5151 0.7310 0.0000
vt 0.5065 0.7057 0.0000
vt 0.5082 0.6790 0.0000
vt 0.5200 0.6549 0.0000
vt 0.5401 0.6373 0.0000
vt 0.5654 0.6287 0.0000
vt 0.5921 0.6304 0.0000
vt 0.6161 0.6422 0.0000
vt 0.6338 0.6623 0.0000
vt 0.6424 0.6876 0.0000
vt 0.6407 0.7143 0.0000
vt 0.6289 0.7383 0.0000
vt 0.5870 0.7914 0.0000
vt 0.6224 0.7794 0.0000
vt 0.5498 0.7890 0.0000
vt 0.5163 0.7726 0.0000
vt 0.4917 0.7445 0.0000
vt 0.4797 0.7092 0.0000
vt 0.4821 0.6720 0.0000
vt 0.4985 0.6385 0.0000
vt 0.5265 0.6139 0.0000
vt 0.5619 0.6018 0.0000
vt 0.5991 0.6042 0.0000
vt 0.6326 0.6207 0.0000
vt 0.6572 0.6487 0.0000
vt 0.6692 0.6840 0.0000
vt 0.6668 0.7213 0.0000
vt 0.6504 0.7548 0.0000
vt 0.5909 0.8203 0.0000
vt 0.6369 0.8046 0.0000
vt 0.5423 0.8171 0.0000
vt 0.4986 0.7957 0.0000
vt 0.4665 0.7591 0.0000
vt 0.4508 0.7130 0.0000
vt 0.4539 0.6645 0.0000
vt 0.4754 0.6208 0.0000
vt 0.5120 0.5887 0.0000
vt 0.5580 0.5730 0.0000
vt 0.6066 0.5761 0.0000
vt 0.6503 0.5976 0.0000
vt 0.6824 0.6341 0.0000
vt 0.6981 0.6802 0.0000
vt 0.6949 0.7288 0.0000
vt 0.6735 0.7724 0.0000
vt 0.6573 0.8391 0.0000
vt 0.6722 0.8391 0.0000
vt 0.6722 0.9711 0.0000
vt 0.6573 0.9711 0.0000
vt 0.6871 0.8391 0.0000
vt 0.6871 0.9711 0.0000
vt 0.7020 0.8391 0.0000
vt 0.7020 0.9711 0.0000
vt 0.7169 0.8391 0.0000
vt 0.7169 0.9711 0.0000
vt 0.7318 0.8391 0.0000
vt 0.7318 0.9711 0.0000
vt 0.7467 0.8391 0.0000
vt 0.7467 0.9711 0.0000
vt 0.7616 0.8391 0.0000
vt 0.7616 0.9711 0.0000
vt 0.7765 0.8391 0.0000
vt 0.7765 0.9711 0.0000
vt 0.4738 0.9040 -56.1121
vt 0.4774 0.8952 -56.1121
vt 0.4861 0.9039 -56.1121
vt 0.4861 0.8916 -56.1121
vt 0.4948 0.8952 -56.1121
vt 0.4984 0.9039 -56.1121
vt 0.4949 0.9126 -56.1121
vt 0.4862 0.9162 -56.1121
vt 0.4775 0.9127 -56.1121
vt 0.4664 0.8843 -56.1121
vt 0.4583 0.9040 56.1121
vt 0.4860 0.8761 -56.1121
vt 0.5057 0.8842 -56.1121
vt 0.5139 0.9038 56.1121
vt 0.5059 0.9235 -56.1121
vt 0.4862 0.9317 -56.1121
vt 0.4665 0.9237 -56.1121
vt 0.9052 0.2914 0.0000
vt 0.8995 0.2776 0.0000
vt 0.9189 0.2776 0.0000
vt 0.9189 0.2971 0.0000
vt 0.9327 0.2914 0.0000
vt 0.9384 0.2776 0.0000
vt 0.9327 0.2639 0.0000
vt 0.9189 0.2582 0.0000
vt 0.9052 0.2639 0.0000
vt 0.9212 0.7167 0.0000
vt 0.7891 0.7167 0.0000
vt 0.7891 0.7018 0.0000
vt 0.9212 0.7018 0.0000
vt 0.7891 0.6869 0.0000
vt 0.9212 0.6869 0.0000
vt 0.7891 0.6720 0.0000
vt 0.9212 0.6720 0.0000
vt 0.7891 0.6571 0.0000
vt 0.9212 0.6571 0.0000
vt 0.7891 0.6422 0.0000
vt 0.9212 0.6422 0.0000
vt 0.7891 0.6272 0.0000
vt 0.9212 0.6272 0.0000
vt 0.7891 0.6123 0.0000
vt 0.9212 0.6123 0.0000
vt 0.7891 0.5974 0.0000
vt 0.9212 0.5974 0.0000
vt 0.9249 0.4813 -113.1631
vt 0.9372 0.4816 -113.1631
vt 0.9283 0.4901 -113.1631
vt 0.9369 0.4939 -113.1631
vt 0.9457 0.4905 -113.1631
vt 0.9495 0.4818 -113.1631
vt 0.9461 0.4731 -113.1631
vt 0.9375 0.4693 -113.1631
vt 0.9287 0.4727 -113.1631
vt 0.9171 0.5007 -113.1631
vt 0.9094 0.4809 113.1631
vt 0.9366 0.5093 -113.1631
vt 0.9564 0.5017 -113.1631
vt 0.9650 0.4822 113.1631
vt 0.9573 0.4624 -113.1631
vt 0.9379 0.4538 -113.1631
vt 0.9180 0.4615 -113.1631
vt 0.9062 0.8097 0.0000
vt 0.9200 0.8040 0.0000
vt 0.9200 0.8235 0.0000
vt 0.9005 0.8235 0.0000
vt 0.9337 0.8097 0.0000
vt 0.9394 0.8235 0.0000
vt 0.9337 0.8372 0.0000
vt 0.9200 0.8429 0.0000
vt 0.9062 0.8372 0.0000
vt 0.0342 0.9597 0.0000
vt 0.0342 0.0027 0.0000
vt 0.0422 0.0027 0.0000
vt 0.0422 0.9597 0.0000
vt 0.0263 0.9597 0.0000
vt 0.0263 0.0027 0.0000
vt 0.0184 0.9597 0.0000
vt 0.0184 0.0027 0.0000
vt 0.0104 0.9597 0.0000
vt 0.0104 0.0027 0.0000
vt 0.0025 0.9597 0.0000
vt 0.0025 0.0027 0.0000
vt 0.0501 0.0027 0.0000
vt 0.0501 0.9597 0.0000
vt 0.8653 0.4724 0.0000
vt 0.8584 0.4763 0.0000
vt 0.8584 0.4605 0.0000
vt 0.8653 0.4644 0.0000
vt 0.7783 0.2924 0.0000
vt 0.7714 0.2884 0.0000
vt 0.7714 0.2761 0.0000
vt 0.7890 0.2862 0.0000
vt 0.7783 0.3003 0.0000
vt 0.7890 0.3065 0.0000
vt 0.7714 0.3043 0.0000
vt 0.7714 0.3167 0.0000
vt 0.7646 0.3003 0.0000
vt 0.7539 0.3065 0.0000
vt 0.7646 0.2924 0.0000
vt 0.7539 0.2862 0.0000
vt 0.3922 0.6043 0.0000
vt 0.4094 0.5936 0.0000
vt 0.4354 0.6544 0.0000
vt 0.3790 0.6197 0.0000
vt 0.4683 0.5970 0.0000
vt 0.4841 0.6097 0.0000
vt 0.4493 0.5897 0.0000
vt 0.4291 0.5885 0.0000
vt 0.8515 0.4724 0.0000
vt 0.8515 0.4644 0.0000
vt 0.8184 0.3167 0.0000
vt 0.8334 0.3167 0.0000
vt 0.8334 0.4493 0.0000
vt 0.8184 0.4493 0.0000
vt 0.8484 0.3167 0.0000
vt 0.8484 0.4493 0.0000
vt 0.8633 0.3167 0.0000
vt 0.8633 0.4493 0.0000
vt 0.8783 0.3167 0.0000
vt 0.8783 0.4493 0.0000
vt 0.8933 0.3167 0.0000
vt 0.8933 0.4493 0.0000
vt 0.8792 0.3185 0.0000
vt 0.8792 0.4511 0.0000
vt 0.8942 0.3185 0.0000
vt 0.8942 0.4511 0.0000
vt 0.8035 0.3167 0.0000
vt 0.8035 0.4493 0.0000
vt 0.9298 0.5408 -56.0247
vt 0.9333 0.5321 -56.0247
vt 0.9421 0.5407 -56.0247
vt 0.9419 0.5284 -56.0247
vt 0.9507 0.5318 -56.0247
vt 0.9544 0.5405 -56.0247
vt 0.9509 0.5492 -56.0247
vt 0.9423 0.5530 -56.0247
vt 0.9335 0.5495 -56.0247
vt 0.9221 0.5213 -56.0247
vt 0.9143 0.5411 56.0247
vt 0.9417 0.5129 -56.0247
vt 0.9614 0.5207 -56.0247
vt 0.9699 0.5402 56.0247
vt 0.9620 0.5600 -56.0247
vt 0.9425 0.5684 -56.0247
vt 0.9227 0.5606 -56.0247
vt 0.8076 0.8391 0.0000
vt 0.8077 0.9711 0.0000
vt 0.7928 0.9711 0.0000
vt 0.7927 0.8391 0.0000
vt 0.7779 0.9711 0.0000
vt 0.7778 0.8391 0.0000
vt 0.8971 0.8391 0.0000
vt 0.8971 0.9711 0.0000
vt 0.8822 0.9711 0.0000
vt 0.8822 0.8391 0.0000
vt 0.8673 0.9711 0.0000
vt 0.8673 0.8391 0.0000
vt 0.8524 0.9711 0.0000
vt 0.8524 0.8391 0.0000
vt 0.8375 0.9711 0.0000
vt 0.8374 0.8391 0.0000
vt 0.8226 0.9711 0.0000
vt 0.8225 0.8391 0.0000
vt 0.7159 0.7194 -77.8251
vt 0.7282 0.7196 -77.8251
vt 0.7194 0.7282 -77.8251
vt 0.7280 0.7319 -77.8251
vt 0.7368 0.7284 -77.8251
vt 0.7405 0.7198 -77.8251
vt 0.7370 0.7110 -77.8251
vt 0.7283 0.7073 -77.8251
vt 0.7196 0.7108 -77.8251
vt 0.7083 0.7390 -77.8251
vt 0.7004 0.7193 77.8251
vt 0.7279 0.7474 -77.8251
vt 0.7476 0.7395 -77.8251
vt 0.7560 0.7199 77.8251
vt 0.7481 0.7002 -77.8251
vt 0.7285 0.6918 -77.8251
vt 0.7088 0.6997 -77.8251
vt 0.9720 0.5473 -0.0000
vt 0.9720 0.5098 0.0000
vt 0.9720 0.4723 0.0000
vt 0.9721 0.4349 -0.0000
vt 0.9718 0.3981 -0.0000
vt 0.9718 0.9966 -0.0000
vt 0.9721 0.9599 0.0000
vt 0.9720 0.9224 0.0000
vt 0.9720 0.8849 -0.0000
vt 0.9720 0.8474 -0.0000
vt 0.9720 0.8099 -0.0000
vt 0.9720 0.7724 0.0000
vt 0.9720 0.7349 0.0000
vt 0.9720 0.6974 -0.0000
vt 0.9720 0.6599 -0.0000
vt 0.9720 0.6224 -0.0000
vt 0.9720 0.5848 -0.0000
vt 0.9976 0.5098 0.0000
vt 0.9976 0.5473 -0.0000
vt 0.9976 0.5848 -0.0000
vt 0.9976 0.6224 -0.0000
vt 0.9976 0.6599 -0.0000
vt 0.9976 0.6974 -0.0000
vt 0.9976 0.7349 0.0000
vt 0.9976 0.7724 0.0000
vt 0.9976 0.8099 -0.0000
vt 0.9976 0.8474 -0.0000
vt 0.9976 0.8849 -0.0000
vt 0.9976 0.9224 0.0000
vt 0.9975 0.9599 0.0000
vt 0.9978 0.9966 -0.0000
vt 0.9978 0.3981 -0.0000
vt 0.9975 0.4349 -0.0000
vt 0.9976 0.4723 0.0000
vt 0.3303 0.8306 -289.5226
vt 0.3441 0.8557 -289.5226
vt 0.2959 0.8674 -289.5226
vt 0.2954 0.8387 -289.5226
vt 0.3579 0.8090 -289.5226
vt 0.3891 0.8280 -289.5226
vt 0.3726 0.7803 -289.5226
vt 0.4248 0.7791 -289.5226
vt 0.3738 0.7502 -289.5226
vt 0.3988 0.7423 -289.5226
vt 0.3646 0.7215 -289.5226
vt 0.3852 0.7064 -289.5226
vt 0.3466 0.6980 -289.5226
vt 0.3614 0.6775 -289.5226
vt 0.3217 0.6825 -289.5226
vt 0.3293 0.6586 -289.5226
vt 0.2928 0.6774 -289.5226
vt 0.2924 0.6524 -289.5226
vt 0.2642 0.6835 -289.5226
vt 0.2558 0.6598 -289.5226
vt 0.2398 0.6997 -289.5226
vt 0.2243 0.6797 -289.5226
vt 0.2225 0.7238 -289.5226
vt 0.2015 0.7094 -289.5226
vt 0.2144 0.7528 -289.5226
vt 0.1891 0.7456 -289.5226
vt 0.2165 0.7828 -289.5226
vt 0.1643 0.7832 -289.5226
vt 0.2321 0.8110 -289.5226
vt 0.2014 0.8310 -289.5226
vt 0.2603 0.8317 -289.5226
vt 0.2472 0.8572 -289.5226
vt 0.3171 0.8042 -289.5226
vt 0.2949 0.8091 -289.5226
vt 0.3348 0.7910 -289.5226
vt 0.3451 0.7728 -289.5226
vt 0.3474 0.7524 -289.5226
vt 0.3422 0.7325 -289.5226
vt 0.3305 0.7156 -289.5226
vt 0.3134 0.7041 -289.5226
vt 0.2932 0.7001 -289.5226
vt 0.2731 0.7047 -289.5226
vt 0.2564 0.7168 -289.5226
vt 0.2453 0.7341 -289.5226
vt 0.2408 0.7541 -289.5226
vt 0.2437 0.7744 -289.5226
vt 0.2546 0.7923 -289.5226
vt 0.2727 0.8048 -289.5226
vt 0.3038 0.7713 -289.5226
vt 0.2945 0.7732 -289.5226
vt 0.3118 0.7659 -289.5226
vt 0.3172 0.7580 -289.5226
vt 0.3196 0.7482 -289.5226
vt 0.3185 0.7377 -289.5226
vt 0.3135 0.7277 -289.5226
vt 0.3048 0.7202 -289.5226
vt 0.2934 0.7176 -289.5226
vt 0.2822 0.7207 -289.5226
vt 0.2738 0.7285 -289.5226
vt 0.2692 0.7386 -289.5226
vt 0.2685 0.7491 -289.5226
vt 0.2712 0.7588 -289.5226
vt 0.2769 0.7665 -289.5226
vt 0.2851 0.7715 -289.5226
vt 0.2938 0.7328 -289.5226
vt 0.8734 0.2963 -134.0403
vt 0.8460 0.2904 -134.0403
vt 0.8460 0.2851 -134.0403
vt 0.8756 0.2915 -134.0403
vt 0.8185 0.2963 -134.0403
vt 0.8163 0.2915 -134.0403
vt 0.7948 0.3136 -134.0403
vt 0.7908 0.3099 -134.0403
vt 0.7782 0.3407 -134.0403
vt 0.7731 0.3388 -134.0403
vt 0.7659 0.3742 -134.0403
vt 0.7614 0.4039 -134.0403
vt 0.7558 0.4042 134.0403
vt 0.7607 0.3723 -134.0403
vt 0.7689 0.4337 -134.0403
vt 0.7637 0.4362 -134.0403
vt 0.7874 0.4590 -134.0403
vt 0.7834 0.4633 -134.0403
vt 0.8144 0.4760 -134.0403
vt 0.8122 0.4815 -134.0403
vt 0.8460 0.4819 -134.0403
vt 0.8460 0.4879 -134.0403
vt 0.8775 0.4760 -134.0403
vt 0.8797 0.4815 -134.0403
vt 0.9045 0.4590 -134.0403
vt 0.9085 0.4633 -134.0403
vt 0.9230 0.4337 -134.0403
vt 0.9283 0.4362 -134.0403
vt 0.9305 0.4039 -134.0403
vt 0.9362 0.4042 134.0403
vt 0.9261 0.3742 -134.0403
vt 0.9313 0.3723 -134.0403
vt 0.9137 0.3407 -134.0403
vt 0.8971 0.3136 -134.0403
vt 0.9011 0.3100 -134.0403
vt 0.9188 0.3388 -134.0403
vt 0.3272 0.9328 0.0000
vt 0.3573 0.9552 0.0000
vt 0.3573 0.9918 0.0000
vt 0.3272 0.9918 0.0000
vt 0.4495 0.7169 289.5226
vt 0.4618 0.7540 -289.5226
vt 0.4295 0.6727 -289.5226
vt 0.3945 0.6331 -289.5226
vt 0.3466 0.6063 -289.5226
vt 0.2916 0.5973 -289.5226
vt 0.2368 0.6080 -289.5226
vt 0.1898 0.6364 -289.5226
vt 0.1562 0.6770 -289.5226
vt 0.1376 0.7219 289.5226
vt 0.1264 0.7593 -289.5226
vt 0.0565 0.9552 0.0000
vt 0.0866 0.9328 0.0000
vt 0.0866 0.9918 0.0000
vt 0.0565 0.9918 0.0000
vt 0.1167 0.9328 0.0000
vt 0.1167 0.9918 0.0000
vt 0.1468 0.9328 0.0000
vt 0.1468 0.9918 0.0000
vt 0.1768 0.9328 0.0000
vt 0.1768 0.9918 0.0000
vt 0.2069 0.9328 0.0000
vt 0.2069 0.9918 0.0000
vt 0.2370 0.9328 0.0000
vt 0.2370 0.9918 0.0000
vt 0.2671 0.9328 0.0000
vt 0.2671 0.9918 0.0000
vt 0.2971 0.9328 0.0000
vt 0.2971 0.9918 0.0000
vt 0.6303 0.5839 0.0000
vt 0.5963 0.5715 0.0000
vt 0.6632 0.5989 0.0000
vt 0.6948 0.6164 0.0000
vt 0.7250 0.6363 0.0000
vt 0.2130 0.6164 0.0000
vt 0.1829 0.6363 0.0000
vt 0.2447 0.5989 0.0000
vt 0.2776 0.5839 0.0000
vt 0.3115 0.5716 0.0000
vt 0.3464 0.5618 0.0000
vt 0.3819 0.5549 0.0000
vt 0.4178 0.5507 0.0000
vt 0.4539 0.5493 0.0000
vt 0.4901 0.5507 0.0000
vt 0.5260 0.5549 0.0000
vt 0.5615 0.5618 0.0000
vt 0.6188 0.4568 0.0000
vt 0.5903 0.4568 -0.0000
vt 0.5928 0.4081 -0.0000
vt 0.6244 0.4086 0.0000
vt 0.6004 0.2623 -0.0000
vt 0.6411 0.2639 0.0000
vt 0.6556 0.4560 0.0000
vt 0.6615 0.4082 0.0000
vt 0.6795 0.2647 0.0000
vt 0.7021 0.4549 -0.0000
vt 0.7054 0.4071 -0.0000
vt 0.7154 0.2639 -0.0000
vt 0.7532 0.4541 -0.0000
vt 0.7528 0.4064 -0.0000
vt 0.7516 0.2632 -0.0000
vt 0.1721 0.4071 0.0000
vt 0.1754 0.4549 0.0000
vt 0.1242 0.4541 -0.0000
vt 0.1246 0.4064 -0.0000
vt 0.1258 0.2632 -0.0000
vt 0.1620 0.2639 0.0000
vt 0.2159 0.4082 0.0000
vt 0.2219 0.4560 0.0000
vt 0.1980 0.2647 0.0000
vt 0.2530 0.4086 -0.0000
vt 0.2586 0.4568 -0.0000
vt 0.2363 0.2639 -0.0000
vt 0.2846 0.4081 -0.0000
vt 0.2872 0.4568 -0.0000
vt 0.2771 0.2623 -0.0000
vt 0.3157 0.4538 -0.0000
vt 0.3162 0.4053 -0.0000
vt 0.3176 0.2597 -0.0000
vt 0.3501 0.4491 0.0000
vt 0.3520 0.4009 0.0000
vt 0.3579 0.2565 0.0000
vt 0.3920 0.4450 0.0000
vt 0.3935 0.3971 0.0000
vt 0.3982 0.2536 0.0000
vt 0.4387 0.4434 -0.0000
vt 0.4387 0.3957 -0.0000
vt 0.4387 0.2525 -0.0000
vt 0.4839 0.3971 -0.0000
vt 0.4855 0.4450 -0.0000
vt 0.4793 0.2536 -0.0000
vt 0.5254 0.4009 -0.0000
vt 0.5274 0.4491 -0.0000
vt 0.5196 0.2565 -0.0000
vt 0.5613 0.4053 -0.0000
vt 0.5618 0.4538 -0.0000
vt 0.5598 0.2597 -0.0000
# 846 texture coords

g FootSoldier
usemtl asdasdasd
s 8
f 1/1/1 2/2/2 3/3/2 4/4/1 
f 2/2/2 5/5/3 6/6/3 3/3/2 
f 5/5/3 7/7/4 8/8/4 6/6/3 
f 7/7/4 9/9/5 10/10/5 8/8/4 
f 9/9/5 11/11/6 12/12/6 10/10/5 
f 11/11/6 13/13/7 14/14/7 12/12/6 
f 13/13/7 15/15/8 16/16/8 14/14/7 
f 15/15/8 17/17/9 18/18/9 16/16/8 
f 17/17/9 19/19/10 20/20/10 18/18/9 
f 19/19/10 21/21/11 22/22/11 20/20/10 
f 21/21/11 23/23/12 24/24/12 22/22/11 
f 23/23/12 25/25/13 26/26/13 24/24/12 
f 25/27/13 27/28/14 28/29/14 26/30/13 
f 27/28/14 29/31/15 30/32/15 28/29/14 
f 29/31/15 31/33/16 32/34/16 30/32/15 
f 31/33/16 1/1/1 4/4/1 32/34/16 
s off
f 4/35/17 3/36/17 33/37/17 34/38/17 
f 3/36/17 6/39/17 35/40/17 33/37/17 
f 6/39/17 8/41/17 36/42/17 35/40/17 
f 8/41/17 10/43/17 37/44/17 36/42/17 
f 10/43/17 12/45/17 38/46/17 37/44/17 
f 12/45/17 14/47/17 39/48/17 38/46/17 
f 14/47/17 16/49/17 40/50/17 39/48/17 
f 16/49/17 18/51/17 41/52/17 40/50/17 
f 18/51/17 20/53/17 42/54/17 41/52/17 
f 20/53/17 22/55/17 43/56/17 42/54/17 
f 22/55/17 24/57/17 44/58/17 43/56/17 
f 24/57/17 26/59/17 45/60/17 44/58/17 
f 26/59/17 28/61/17 46/62/17 45/60/17 
f 28/61/17 30/63/17 47/64/17 46/62/17 
f 30/63/17 32/65/17 48/66/17 47/64/17 
f 32/65/17 4/35/17 34/38/17 48/66/17 
f 34/38/17 33/37/17 33/37/17 34/38/17 
f 33/37/18 35/40/18 35/40/18 33/37/18 
f 35/40/18 36/42/18 36/42/18 35/40/18 
f 36/42/18 37/44/18 37/44/18 36/42/18 
f 37/44/18 38/46/18 38/46/18 37/44/18 
f 38/46/18 39/48/18 39/48/18 38/46/18 
f 39/48/18 40/50/18 40/50/18 39/48/18 
f 40/50/17 41/52/17 41/52/17 40/50/17 
f 41/52/18 42/54/18 42/54/18 41/52/18 
f 42/54/17 43/56/17 43/56/17 42/54/17 
f 43/56/17 44/58/17 44/58/17 43/56/17 
f 44/58/17 45/60/17 45/60/17 44/58/17 
f 45/60/17 46/62/17 46/62/17 45/60/17 
f 46/62/18 47/64/18 47/64/18 46/62/18 
f 47/64/18 48/66/18 48/66/18 47/64/18 
f 48/66/17 34/38/17 34/38/17 48/66/17 
s 1
f 34/67/19 33/68/20 49/69/20 50/70/19 
f 33/68/20 35/71/21 51/72/21 49/69/20 
f 35/71/21 36/73/22 52/74/22 51/72/21 
f 36/73/22 37/75/23 53/76/23 52/74/22 
f 37/77/23 38/78/24 54/79/24 53/80/23 
f 38/78/24 39/81/25 55/82/25 54/79/24 
f 39/81/25 40/83/26 56/84/26 55/82/25 
f 40/83/26 41/85/27 57/86/27 56/84/26 
f 41/85/27 42/87/28 58/88/28 57/86/27 
f 42/87/28 43/89/29 59/90/29 58/88/28 
f 43/89/29 44/91/30 60/92/30 59/90/29 
f 44/91/30 45/93/31 61/94/31 60/92/30 
f 45/93/31 46/95/32 62/96/32 61/94/31 
f 46/95/32 47/97/33 63/98/33 62/96/32 
f 47/97/33 48/99/34 64/100/34 63/98/33 
f 48/99/34 34/67/19 50/70/19 64/100/34 
s off
f 50/101/35 49/102/35 65/103/35 66/104/35 
f 49/102/35 51/105/35 67/106/35 65/103/35 
f 51/105/35 52/107/35 68/108/35 67/106/35 
f 52/107/35 53/109/35 69/110/35 68/108/35 
f 53/109/35 54/111/35 70/112/35 69/110/35 
f 54/111/35 55/113/35 71/114/35 70/112/35 
f 55/113/35 56/115/35 72/116/35 71/114/35 
f 56/115/35 57/117/35 73/118/35 72/116/35 
f 57/117/35 58/119/35 74/120/35 73/118/35 
f 58/119/35 59/121/35 75/122/35 74/120/35 
f 59/121/35 60/123/35 76/124/35 75/122/35 
f 60/123/35 61/125/35 77/126/35 76/124/35 
f 61/125/35 62/127/35 78/128/35 77/126/35 
f 62/127/35 63/129/35 79/130/35 78/128/35 
f 63/129/35 64/131/35 80/132/35 79/130/35 
f 64/131/35 50/101/35 66/104/35 80/132/35 
s 1
f 65/133/36 81/134/36 82/135/37 66/136/37 
f 67/137/38 83/138/38 81/134/36 65/133/36 
f 68/139/39 84/140/39 83/138/38 67/137/38 
f 69/141/40 85/142/40 84/140/39 68/139/39 
f 70/143/41 86/144/41 85/145/40 69/146/40 
f 71/147/42 87/148/42 86/144/41 70/143/41 
f 72/149/43 88/150/43 87/148/42 71/147/42 
f 73/151/44 89/152/44 88/150/43 72/149/43 
f 74/153/45 90/154/45 89/152/44 73/151/44 
f 75/155/46 91/156/46 90/154/45 74/153/45 
f 76/157/47 92/158/47 91/156/46 75/155/46 
f 77/159/48 93/160/48 92/158/47 76/157/47 
f 78/161/49 94/162/49 93/160/48 77/159/48 
f 79/163/50 95/164/50 94/162/49 78/161/49 
f 80/165/51 96/166/51 95/164/50 79/163/50 
f 66/136/37 82/135/37 96/166/51 80/165/51 
s 2
f 97/167/52 98/168/53 99/169/54 100/170/55 
f 98/168/53 101/171/56 102/172/57 99/169/54 
f 101/171/56 103/173/58 104/174/59 102/172/57 
f 103/173/58 105/175/60 106/176/61 104/174/59 
f 105/177/60 107/178/62 108/179/63 106/180/61 
f 107/178/62 109/181/64 110/182/65 108/179/63 
f 109/181/64 111/183/66 112/184/67 110/182/65 
f 111/183/66 113/185/68 114/186/69 112/184/67 
f 113/185/68 115/187/70 116/188/71 114/186/69 
f 115/187/70 117/189/72 118/190/73 116/188/71 
f 117/189/72 119/191/74 120/192/75 118/190/73 
f 119/191/74 121/193/76 122/194/77 120/192/75 
f 121/193/76 123/195/78 124/196/79 122/194/77 
f 123/195/78 125/197/80 126/198/81 124/196/79 
f 125/197/80 127/199/82 128/200/83 126/198/81 
f 127/199/82 97/167/52 100/170/55 128/200/83 
s 1
f 129/201/84 130/202/85 131/203/86 132/204/87 
f 133/205/88 129/201/84 132/204/87 134/206/89 
f 135/207/90 133/205/88 134/206/89 136/208/91 
f 137/209/92 135/207/90 136/208/91 138/210/93 
f 139/211/94 140/212/95 137/213/92 138/214/93 
f 141/215/96 142/216/97 140/212/95 139/211/94 
f 143/217/98 144/218/99 142/216/97 141/215/96 
f 145/219/100 146/220/101 144/218/99 143/217/98 
f 147/221/102 146/220/101 145/219/100 148/222/103 
f 149/223/104 147/221/102 148/222/103 150/224/105 
f 151/225/106 149/223/104 150/224/105 152/226/107 
f 153/227/108 151/225/106 152/226/107 154/228/109 
f 155/229/110 156/230/111 153/227/108 154/228/109 
f 157/231/112 158/232/113 156/230/111 155/229/110 
f 159/233/114 160/234/115 158/232/113 157/231/112 
f 131/203/86 130/202/85 160/234/115 159/233/114 
s 2
f 161/235/116 162/236/117 163/237/118 164/238/116 
f 162/236/117 165/239/119 166/240/120 163/237/118 
f 165/239/119 167/241/121 168/242/122 166/240/120 
f 167/241/121 169/243/123 170/244/123 168/242/122 
f 169/243/123 171/245/124 172/246/125 170/244/123 
f 171/245/124 173/247/126 174/248/127 172/246/125 
f 173/247/126 175/249/128 176/250/129 174/248/127 
f 175/249/128 177/251/130 178/252/130 176/250/129 
f 177/251/130 179/253/131 180/254/132 178/252/130 
f 179/253/131 181/255/133 182/256/134 180/254/132 
f 181/255/133 183/257/135 184/258/136 182/256/134 
f 183/257/135 185/259/137 186/260/137 184/258/136 
f 185/259/137 187/261/138 188/262/139 186/260/137 
f 187/261/138 189/263/140 190/264/141 188/262/139 
f 189/263/140 191/265/142 192/266/143 190/264/141 
f 191/265/142 161/235/116 164/238/116 192/266/143 
s off
f 164/267/17 163/268/17 193/269/17 194/270/17 
f 163/268/17 166/271/17 195/272/17 193/269/17 
f 166/271/17 168/273/17 196/274/17 195/272/17 
f 168/273/17 170/275/17 197/276/17 196/274/17 
f 170/275/17 172/277/17 198/278/17 197/276/17 
f 172/277/17 174/279/17 199/280/17 198/278/17 
f 174/279/17 176/281/17 200/282/17 199/280/17 
f 176/281/17 178/283/17 201/284/17 200/282/17 
f 178/283/17 180/285/17 202/286/17 201/284/17 
f 180/285/17 182/287/17 203/288/17 202/286/17 
f 182/287/17 184/289/17 204/290/17 203/288/17 
f 184/289/17 186/291/17 205/292/17 204/290/17 
f 186/291/17 188/293/17 206/294/17 205/292/17 
f 188/293/17 190/295/17 207/296/17 206/294/17 
f 190/295/17 192/297/17 208/298/17 207/296/17 
f 192/297/17 164/267/17 194/270/17 208/298/17 
s 1
f 194/299/1 193/300/144 209/301/144 210/302/1 
f 193/300/144 195/303/145 211/304/145 209/301/144 
f 195/303/145 196/305/146 212/306/146 211/304/145 
f 196/305/146 197/307/147 213/308/147 212/306/146 
f 197/307/147 198/309/148 214/310/148 213/308/147 
f 198/309/148 199/311/149 215/312/149 214/310/148 
f 199/311/149 200/313/150 216/314/150 215/312/149 
f 200/313/150 201/315/9 217/316/9 216/314/150 
f 201/315/9 202/317/151 218/318/151 217/316/9 
f 202/317/151 203/319/152 219/320/152 218/318/151 
f 203/319/152 204/321/153 220/322/153 219/320/152 
f 204/321/153 205/323/13 221/324/13 220/322/153 
f 205/325/13 206/326/154 222/327/154 221/328/13 
f 206/326/154 207/329/155 223/330/155 222/327/154 
f 207/329/155 208/331/156 224/332/156 223/330/155 
f 208/331/156 194/299/1 210/302/1 224/332/156 
f 225/333/157 226/334/158 227/335/159 228/336/160 
f 229/337/161 230/338/162 226/334/158 225/333/157 
f 231/339/163 232/340/164 230/338/162 229/337/161 
f 233/341/165 234/342/166 232/340/164 231/339/163 
f 235/343/167 236/344/168 234/342/166 233/341/165 
f 237/345/169 238/346/170 236/344/168 235/343/167 
f 239/347/171 240/348/172 238/346/170 237/345/169 
f 241/349/173 242/350/174 240/348/172 239/347/171 
f 243/351/175 244/352/176 242/350/174 241/349/173 
f 245/353/177 246/354/178 244/352/176 243/351/175 
f 247/355/179 248/356/180 246/354/178 245/353/177 
f 249/357/181 250/358/182 248/356/180 247/355/179 
f 251/359/183 252/360/184 250/358/182 249/357/181 
f 253/361/185 254/362/186 252/360/184 251/359/183 
f 255/363/187 256/364/188 254/362/186 253/361/185 
f 228/336/160 227/335/159 256/364/188 255/363/187 
f 257/365/189 225/333/157 228/336/160 258/366/190 
f 259/367/191 229/337/161 225/333/157 257/365/189 
f 260/368/192 231/339/163 229/337/161 259/367/191 
f 261/369/193 233/341/165 231/339/163 260/368/192 
f 262/370/194 235/343/167 233/341/165 261/369/193 
f 263/371/195 237/345/169 235/343/167 262/370/194 
f 264/372/196 239/347/171 237/345/169 263/371/195 
f 265/373/197 241/349/173 239/347/171 264/372/196 
f 266/374/198 243/351/175 241/349/173 265/373/197 
f 267/375/199 245/353/177 243/351/175 266/374/198 
f 268/376/200 247/355/179 245/353/177 267/375/199 
f 269/377/201 249/357/181 247/355/179 268/376/200 
f 270/378/202 251/359/183 249/357/181 269/377/201 
f 271/379/203 253/361/185 251/359/183 270/378/202 
f 272/380/204 255/363/187 253/361/185 271/379/203 
f 258/366/190 228/336/160 255/363/187 272/380/204 
f 273/381/205 257/365/189 258/366/190 274/382/206 
f 275/383/207 259/367/191 257/365/189 273/381/205 
f 276/384/208 260/368/192 259/367/191 275/383/207 
f 277/385/209 261/369/193 260/368/192 276/384/208 
f 278/386/8 262/370/194 261/369/193 277/385/209 
f 279/387/7 263/371/195 262/370/194 278/386/8 
f 280/388/6 264/372/196 263/371/195 279/387/7 
f 281/389/5 265/373/197 264/372/196 280/388/6 
f 282/390/4 266/374/198 265/373/197 281/389/5 
f 283/391/3 267/375/199 266/374/198 282/390/4 
f 284/392/2 268/376/200 267/375/199 283/391/3 
f 285/393/210 269/377/201 268/376/200 284/392/2 
f 286/394/211 270/378/202 269/377/201 285/393/210 
f 287/395/212 271/379/203 270/378/202 286/394/211 
f 288/396/213 272/380/204 271/379/203 287/395/212 
f 274/382/206 258/366/190 272/380/204 288/396/213 
f 289/397/214 273/381/205 274/382/206 290/398/215 
f 291/399/216 275/383/207 273/381/205 289/397/214 
f 292/400/217 276/384/208 275/383/207 291/399/216 
f 293/401/218 277/385/209 276/384/208 292/400/217 
f 294/402/219 278/386/8 277/385/209 293/401/218 
f 295/403/220 279/387/7 278/386/8 294/402/219 
f 296/404/221 280/388/6 279/387/7 295/403/220 
f 297/405/222 281/389/5 280/388/6 296/404/221 
f 298/406/223 282/390/4 281/389/5 297/405/222 
f 299/407/224 283/391/3 282/390/4 298/406/223 
f 300/408/225 284/392/2 283/391/3 299/407/224 
f 301/409/226 285/393/210 284/392/2 300/408/225 
f 302/410/227 286/394/211 285/393/210 301/409/226 
f 303/411/228 287/395/212 286/394/211 302/410/227 
f 304/412/229 288/396/213 287/395/212 303/411/228 
f 290/398/215 274/382/206 288/396/213 304/412/229 
f 305/413/1 306/414/230 307/415/231 308/416/232 
f 306/414/230 309/417/233 310/418/234 307/415/231 
f 309/417/233 311/419/235 312/420/236 310/418/234 
f 311/419/235 313/421/9 314/422/237 312/420/236 
f 313/421/9 315/423/238 316/424/239 314/422/237 
f 315/423/238 317/425/240 318/426/241 316/424/239 
f 317/425/240 319/427/242 320/428/243 318/426/241 
f 319/427/242 305/429/1 308/430/232 320/428/243 
f 321/431/244 322/432/245 323/433/246 
f 322/432/245 324/434/247 323/433/246 
f 324/434/247 325/435/248 323/433/246 
f 325/435/248 326/436/249 323/433/246 
f 326/436/249 327/437/250 323/433/246 
f 327/437/250 328/438/251 323/433/246 
f 328/438/251 329/439/252 323/433/246 
f 329/439/252 321/431/244 323/433/246 
f 307/440/231 322/432/245 321/431/244 308/441/232 
f 310/442/234 324/434/247 322/432/245 307/440/231 
f 312/443/236 325/435/248 324/434/247 310/442/234 
f 314/444/237 326/436/249 325/435/248 312/443/236 
f 316/445/239 327/437/250 326/436/249 314/444/237 
f 318/446/241 328/438/251 327/437/250 316/445/239 
f 320/447/243 329/439/252 328/438/251 318/446/241 
f 308/441/232 321/431/244 329/439/252 320/447/243 
s off
f 306/448/253 305/449/253 330/450/253 309/451/253 
f 311/452/254 309/451/254 330/450/254 313/453/254 
f 315/454/254 313/453/254 330/450/254 317/455/254 
f 319/456/253 317/455/253 330/450/253 305/449/253 
s 1
f 331/457/255 332/458/256 333/459/257 334/460/258 
f 334/460/258 333/459/257 335/461/259 336/462/260 
f 336/462/260 335/461/259 337/463/261 338/464/262 
f 338/464/262 337/463/261 339/465/263 340/466/9 
f 340/466/9 339/465/263 341/467/264 342/468/265 
f 342/468/265 341/467/264 343/469/266 344/470/267 
f 344/470/267 343/469/266 345/471/268 346/472/269 
f 346/472/269 345/471/268 332/473/256 331/474/255 
f 347/475/270 348/476/271 349/477/272 
f 349/477/272 348/476/271 350/478/273 
f 350/478/273 348/476/271 351/479/274 
f 351/479/274 348/476/271 352/480/275 
f 352/480/275 348/476/271 353/481/276 
f 353/481/276 348/476/271 354/482/277 
f 354/482/277 348/476/271 355/483/278 
f 355/483/278 348/476/271 347/475/270 
f 333/484/257 332/485/256 347/475/270 349/477/272 
f 335/486/259 333/484/257 349/477/272 350/478/273 
f 337/487/261 335/486/259 350/478/273 351/479/274 
f 339/488/263 337/487/261 351/479/274 352/480/275 
f 341/489/264 339/488/263 352/480/275 353/481/276 
f 343/490/266 341/489/264 353/481/276 354/482/277 
f 345/491/268 343/490/266 354/482/277 355/483/278 
f 332/485/256 345/491/268 355/483/278 347/475/270 
s off
f 334/492/279 336/493/279 356/494/279 331/495/279 
f 338/496/279 340/497/279 356/494/279 336/493/279 
f 342/498/279 344/499/279 356/494/279 340/497/279 
f 346/500/279 331/495/279 356/494/279 344/499/279 
s 1
f 357/501/280 358/502/280 359/503/281 360/504/281 
f 361/505/282 362/506/282 358/502/280 357/501/280 
f 363/507/283 364/508/284 362/506/282 361/505/282 
f 365/509/285 366/510/285 364/508/284 363/507/283 
f 367/511/286 368/512/286 366/510/285 365/509/285 
f 360/504/281 359/503/281 368/513/286 367/514/286 
s 4
f 362/515/287 364/516/288 359/517/288 358/518/287 
s off
f 357/519/287 360/520/287 369/521/287 370/522/287 
f 361/523/287 357/519/287 370/522/287 371/524/287 
f 363/525/287 361/523/287 371/524/287 372/526/287 
f 365/527/288 363/525/288 372/526/288 373/528/288 
f 367/529/288 365/527/288 373/528/288 374/530/288 
f 360/520/288 367/529/288 374/530/288 369/521/288 
s 2
f 370/531/289 369/532/290 375/533/291 
f 371/534/292 370/531/289 375/533/291 
f 372/535/293 371/536/292 375/533/291 
f 373/537/294 372/535/293 375/533/291 
f 374/538/295 373/537/294 375/533/291 
f 369/532/290 374/538/295 375/533/291 
s 4
f 366/539/288 368/540/288 359/517/288 364/516/288 
s 1
f 376/541/296 377/542/297 378/543/298 379/544/299 
f 377/542/297 380/545/300 381/546/301 378/543/298 
f 380/545/300 382/547/302 383/548/303 381/546/301 
f 382/547/302 384/549/304 385/550/305 383/548/303 
f 384/549/304 386/551/306 387/552/307 385/550/305 
f 386/551/306 388/553/308 389/554/309 387/552/307 
f 388/553/308 390/555/310 391/556/311 389/554/309 
f 390/557/310 376/541/296 379/544/299 391/558/311 
f 392/559/312 393/560/313 394/561/314 
f 393/560/313 395/562/315 394/561/314 
f 395/562/315 396/563/316 394/561/314 
f 396/563/316 397/564/317 394/561/314 
f 397/564/317 398/565/318 394/561/314 
f 398/565/318 399/566/319 394/561/314 
f 399/566/319 400/567/320 394/561/314 
f 400/567/320 392/559/312 394/561/314 
f 378/568/298 393/560/313 392/559/312 379/569/299 
f 381/570/301 395/562/315 393/560/313 378/568/298 
f 383/571/303 396/563/316 395/562/315 381/570/301 
f 385/572/305 397/564/317 396/563/316 383/571/303 
f 387/573/307 398/565/318 397/564/317 385/572/305 
f 389/574/309 399/566/319 398/565/318 387/573/307 
f 391/575/311 400/567/320 399/566/319 389/574/309 
f 379/569/299 392/559/312 400/567/320 391/575/311 
f 401/576/210 402/577/321 403/578/322 404/579/323 
f 404/579/323 403/578/322 405/580/324 406/581/325 
f 406/582/325 405/583/324 407/584/326 408/585/327 
f 408/585/327 407/584/326 409/586/328 410/587/9 
f 410/587/9 409/586/328 411/588/329 412/589/330 
f 412/589/330 411/588/329 413/590/331 414/591/332 
f 414/591/332 413/590/331 415/592/333 416/593/334 
f 416/593/334 415/592/333 402/577/321 401/576/210 
f 417/594/335 418/595/336 419/596/337 
f 419/596/337 418/595/336 420/597/338 
f 420/597/338 418/595/336 421/598/339 
f 421/598/339 418/595/336 422/599/340 
f 422/599/340 418/595/336 423/600/341 
f 423/600/341 418/595/336 424/601/342 
f 424/601/342 418/595/336 425/602/343 
f 425/602/343 418/595/336 417/594/335 
f 403/603/322 402/604/321 417/594/335 419/596/337 
f 405/605/324 403/603/322 419/596/337 420/597/338 
f 407/606/326 405/605/324 420/597/338 421/598/339 
f 409/607/328 407/606/326 421/598/339 422/599/340 
f 411/608/329 409/607/328 422/599/340 423/600/341 
f 413/609/331 411/608/329 423/600/341 424/601/342 
f 415/610/333 413/609/331 424/601/342 425/602/343 
f 402/604/321 415/610/333 425/602/343 417/594/335 
s 2
f 426/611/344 427/612/345 98/168/53 97/167/52 
f 427/612/345 428/613/346 101/171/56 98/168/53 
f 428/613/346 429/614/347 103/173/58 101/171/56 
f 429/614/347 430/615/348 105/175/60 103/173/58 
f 430/616/348 431/617/349 107/178/62 105/177/60 
f 431/617/349 432/618/350 109/181/64 107/178/62 
f 432/618/350 433/619/351 111/183/66 109/181/64 
f 433/619/351 434/620/352 113/185/68 111/183/66 
f 434/620/352 435/621/353 115/187/70 113/185/68 
f 435/621/353 436/622/354 117/189/72 115/187/70 
f 436/622/354 437/623/355 119/191/74 117/189/72 
f 437/623/355 438/624/356 121/193/76 119/191/74 
f 438/624/356 439/625/357 123/195/78 121/193/76 
f 439/625/357 440/626/358 125/197/80 123/195/78 
f 440/626/358 441/627/359 127/199/82 125/197/80 
f 441/627/359 426/611/344 97/167/52 127/199/82 
f 442/628/360 443/629/361 100/170/55 99/169/54 
f 443/629/361 444/630/362 128/200/83 100/170/55 
f 444/630/362 445/631/363 126/198/81 128/200/83 
f 445/631/363 446/632/364 124/196/79 126/198/81 
f 446/632/364 447/633/365 122/194/77 124/196/79 
f 447/633/365 448/634/366 120/192/75 122/194/77 
f 448/634/366 449/635/367 118/190/73 120/192/75 
f 449/635/367 450/636/368 116/188/71 118/190/73 
f 450/636/368 451/637/369 114/186/69 116/188/71 
f 451/637/369 452/638/370 112/184/67 114/186/69 
f 452/638/370 453/639/371 110/182/65 112/184/67 
f 453/639/371 454/640/372 108/179/63 110/182/65 
f 454/640/372 455/641/373 106/180/61 108/179/63 
f 455/642/373 456/643/374 104/174/59 106/176/61 
f 456/643/374 457/644/375 102/172/57 104/174/59 
f 457/644/375 442/628/360 99/169/54 102/172/57 
s 1
f 458/645/376 459/646/377 460/647/378 461/648/379 
f 462/649/380 463/650/381 459/646/377 458/645/376 
f 464/651/382 465/652/383 463/650/381 462/649/380 
f 466/653/384 467/654/385 465/652/383 464/651/382 
f 468/655/386 469/656/387 467/654/385 466/653/384 
f 470/657/388 471/658/389 469/656/387 468/655/386 
f 472/659/390 473/660/391 471/658/389 470/657/388 
f 474/661/392 475/662/393 473/660/391 472/659/390 
f 476/663/394 477/664/395 475/662/393 474/661/392 
f 478/665/396 479/666/397 477/664/395 476/663/394 
f 480/667/398 481/668/399 479/666/397 478/665/396 
f 482/669/400 483/670/401 481/668/399 480/667/398 
f 484/671/402 485/672/403 483/670/401 482/669/400 
f 486/673/404 487/674/405 485/672/403 484/671/402 
f 488/675/406 489/676/407 487/674/405 486/673/404 
f 461/648/379 460/647/378 489/676/407 488/675/406 
f 490/677/408 458/645/376 461/648/379 491/678/409 
f 492/679/410 462/649/380 458/645/376 490/677/408 
f 493/680/411 464/651/382 462/649/380 492/679/410 
f 494/681/412 466/653/384 464/651/382 493/680/411 
f 495/682/413 468/655/386 466/653/384 494/681/412 
f 496/683/414 470/657/388 468/655/386 495/682/413 
f 497/684/415 472/659/390 470/657/388 496/683/414 
f 498/685/416 474/661/392 472/659/390 497/684/415 
f 499/686/417 476/663/394 474/661/392 498/685/416 
f 500/687/418 478/665/396 476/663/394 499/686/417 
f 501/688/419 480/667/398 478/665/396 500/687/418 
f 502/689/420 482/669/400 480/667/398 501/688/419 
f 503/690/421 484/671/402 482/669/400 502/689/420 
f 504/691/422 486/673/404 484/671/402 503/690/421 
f 505/692/423 488/675/406 486/673/404 504/691/422 
f 491/678/409 461/648/379 488/675/406 505/692/423 
f 506/693/424 490/677/408 491/678/409 507/694/425 
f 508/695/426 492/679/410 490/677/408 506/693/424 
f 509/696/427 493/680/411 492/679/410 508/695/426 
f 510/697/428 494/681/412 493/680/411 509/696/427 
f 511/698/429 495/682/413 494/681/412 510/697/428 
f 512/699/430 496/683/414 495/682/413 511/698/429 
f 513/700/431 497/684/415 496/683/414 512/699/430 
f 514/701/432 498/685/416 497/684/415 513/700/431 
f 515/702/433 499/686/417 498/685/416 514/701/432 
f 516/703/434 500/687/418 499/686/417 515/702/433 
f 517/704/435 501/688/419 500/687/418 516/703/434 
f 518/705/436 502/689/420 501/688/419 517/704/435 
f 519/706/437 503/690/421 502/689/420 518/705/436 
f 520/707/438 504/691/422 503/690/421 519/706/437 
f 521/708/439 505/692/423 504/691/422 520/707/438 
f 507/694/425 491/678/409 505/692/423 521/708/439 
f 522/709/440 506/693/424 507/694/425 
f 522/709/440 508/695/426 506/693/424 
f 522/709/440 509/696/427 508/695/426 
f 522/709/440 510/697/428 509/696/427 
f 522/709/440 511/698/429 510/697/428 
f 522/709/440 512/699/430 511/698/429 
f 522/709/440 513/700/431 512/699/430 
f 522/709/440 514/701/432 513/700/431 
f 522/709/440 515/702/433 514/701/432 
f 522/709/440 516/703/434 515/702/433 
f 522/709/440 517/704/435 516/703/434 
f 522/709/440 518/705/436 517/704/435 
f 522/709/440 519/706/437 518/705/436 
f 522/709/440 520/707/438 519/706/437 
f 522/709/440 521/708/439 520/707/438 
f 522/709/440 507/694/425 521/708/439 
s off
f 523/710/35 524/711/35 460/712/35 459/713/35 
f 524/711/35 525/714/35 489/715/35 460/712/35 
f 525/714/441 526/716/441 487/717/441 489/715/441 
f 526/716/442 527/718/442 485/719/442 487/717/442 
f 528/720/35 529/721/35 530/722/35 531/723/35 
f 529/721/35 532/724/35 533/725/35 530/722/35 
f 532/724/35 534/726/35 535/727/35 533/725/35 
f 534/726/35 536/728/35 537/729/35 535/727/35 
f 536/728/35 538/730/35 539/731/35 537/729/35 
f 538/730/35 540/732/35 541/733/35 539/731/35 
f 540/732/35 542/734/35 543/735/35 541/733/35 
f 542/734/35 544/736/35 545/737/35 543/735/35 
f 544/736/35 546/738/35 547/739/35 545/737/35 
f 546/738/35 548/740/35 549/741/35 547/739/35 
f 550/742/443 551/743/443 463/744/443 465/745/443 
f 551/743/444 523/710/444 459/713/444 463/744/444 
s 1
f 552/746/445 550/747/446 548/748/446 546/749/210 
s off
f 550/742/14 465/745/14 549/741/14 548/740/14 
s 1
f 465/652/383 467/654/385 547/750/9 549/751/447 
f 467/654/385 469/656/387 545/752/8 547/750/9 
f 469/656/387 471/658/389 543/753/7 545/752/8 
f 471/658/389 473/660/391 541/754/6 543/753/7 
f 473/660/391 475/662/393 539/755/5 541/754/6 
f 475/662/393 477/664/395 537/756/4 539/755/5 
f 477/664/395 479/666/397 535/757/3 537/756/4 
f 479/666/397 481/668/399 533/758/2 535/757/3 
f 481/668/399 483/670/401 530/759/210 533/758/2 
f 483/670/401 485/672/403 531/760/448 530/759/210 
s off
f 485/719/12 527/718/12 528/720/12 531/723/12 
s 1
f 527/761/449 553/762/450 529/763/9 528/764/449 
f 553/762/450 554/765/10 532/766/10 529/763/9 
f 554/765/10 555/767/11 534/768/11 532/766/10 
f 555/767/11 556/769/12 536/770/12 534/768/11 
f 556/769/12 557/771/13 538/772/13 536/770/12 
f 557/771/13 558/773/14 540/774/14 538/772/13 
f 558/773/14 559/775/15 542/776/15 540/774/14 
f 559/775/15 560/777/16 544/778/16 542/776/15 
f 560/777/16 552/746/445 546/749/210 544/778/16 
f 427/779/36 426/780/37 82/135/37 81/134/36 
f 428/781/38 427/779/36 81/134/36 83/138/38 
f 429/782/39 428/781/38 83/138/38 84/140/39 
f 430/783/40 429/782/39 84/140/39 85/142/40 
f 431/784/41 430/785/40 85/145/40 86/144/41 
f 432/786/42 431/784/41 86/144/41 87/148/42 
f 433/787/43 432/786/42 87/148/42 88/150/43 
f 434/788/44 433/787/43 88/150/43 89/152/44 
f 435/789/45 434/788/44 89/152/44 90/154/45 
f 436/790/46 435/789/45 90/154/45 91/156/46 
f 437/791/47 436/790/46 91/156/46 92/158/47 
f 438/792/48 437/791/47 92/158/47 93/160/48 
f 439/793/49 438/792/48 93/160/48 94/162/49 
f 440/794/50 439/793/49 94/162/49 95/164/50 
f 441/795/51 440/794/50 95/164/50 96/166/51 
f 426/780/37 441/795/51 96/166/51 82/135/37 
f 162/796/451 161/797/452 561/798/453 562/799/454 
f 562/799/454 561/798/453 130/202/85 129/201/84 
f 443/800/455 442/801/456 132/204/87 131/203/86 
f 165/802/457 162/796/451 562/799/454 563/803/458 
f 563/803/458 562/799/454 129/201/84 133/205/88 
f 442/801/456 457/804/459 134/206/89 132/204/87 
f 167/805/460 165/802/457 563/803/458 564/806/461 
f 564/806/461 563/803/458 133/205/88 135/207/90 
f 457/804/459 456/807/462 136/208/91 134/206/89 
f 169/808/463 167/805/460 564/806/461 565/809/464 
f 565/809/464 564/806/461 135/207/90 137/209/92 
f 456/807/462 455/810/465 138/210/93 136/208/91 
f 566/811/466 171/812/467 169/813/463 565/814/464 
f 140/212/95 566/811/466 565/814/464 137/213/92 
f 138/214/93 455/815/465 454/816/468 139/211/94 
f 567/817/469 173/818/470 171/812/467 566/811/466 
f 142/216/97 567/817/469 566/811/466 140/212/95 
f 139/211/94 454/816/468 453/819/471 141/215/96 
f 568/820/472 175/821/473 173/818/470 567/817/469 
f 144/218/99 568/820/472 567/817/469 142/216/97 
f 141/215/96 453/819/471 452/822/474 143/217/98 
f 569/823/475 177/824/476 175/821/473 568/820/472 
f 146/220/101 569/823/475 568/820/472 144/218/99 
f 143/217/98 452/822/474 451/825/477 145/219/100 
f 179/826/478 177/824/476 569/823/475 570/827/479 
f 570/827/479 569/823/475 146/220/101 147/221/102 
f 451/825/477 450/828/480 148/222/103 145/219/100 
f 181/829/481 179/826/478 570/827/479 571/830/482 
f 571/830/482 570/827/479 147/221/102 149/223/104 
f 450/828/480 449/831/483 150/224/105 148/222/103 
f 183/832/484 181/829/481 571/830/482 572/833/485 
f 572/833/485 571/830/482 149/223/104 151/225/106 
f 449/831/483 448/834/486 152/226/107 150/224/105 
f 185/835/487 183/832/484 572/833/485 573/836/488 
f 573/836/488 572/833/485 151/225/106 153/227/108 
f 448/834/486 447/837/489 154/228/109 152/226/107 
f 574/838/490 187/839/491 185/835/487 573/836/488 
f 156/230/111 574/838/490 573/836/488 153/227/108 
f 154/228/109 447/837/489 446/840/492 155/229/110 
f 575/841/493 189/842/494 187/839/491 574/838/490 
f 158/232/113 575/841/493 574/838/490 156/230/111 
f 155/229/110 446/840/492 445/843/495 157/231/112 
f 576/844/496 191/845/497 189/842/494 575/841/493 
f 160/234/115 576/844/496 575/841/493 158/232/113 
f 157/231/112 445/843/495 444/846/498 159/233/114 
f 561/798/453 161/797/452 191/845/497 576/844/496 
f 130/202/85 561/798/453 576/844/496 160/234/115 
f 159/233/114 444/846/498 443/800/455 131/203/86 
# 508 polygons - 54 triangles

